Codigo,Nombre,Edad,index1,index2,index3,index4,index5,index6,index7,index8,index9,index10,index11,result
1,Miguel A. Yauri Quillahuaman,10,1,0,0,0,0,1,0,0,0,1,0,0
2,Gabriel Ccoata Quispe,10,1,0,0,0,1,0,1,1,0,0,0,1
3,Gabriela Cjumo Ata,8,1,0,0,0,1,1,1,0,1,0,0,0
4,Dean Yhilmar Cansaya Gutierrez,11,0,1,0,0,0,1,0,0,1,0,0,0
5,Luis Gustavo Yarin Manrique,10,1,0,0,0,0,0,0,0,0,0,1,0
6,Tristan Florez Caviedes,7,0,0,1,0,1,1,0,0,0,1,0,0
7,"VILLACORTA CJUIRO, Pedro",11,0,0,1,0,1,1,0,0,1,0,1,0
8,Claudia Quispe Huillca,9,0,1,0,1,0,1,0,1,0,0,0,1
9,Fiorela Villafuerte Yarin,12,0,0,1,0,0,1,0,0,1,0,0,0
10,Smith Steven Huaman Quispe,7,1,0,0,0,0,1,0,0,1,0,0,1
11,Raul Esteban Consa Ccorahua,9,0,1,0,0,0,0,0,0,1,0,1,0
12,"Loayza Yupanqui, Abel J.",7,0,0,1,0,1,1,1,1,0,1,1,1
13,Huamán Quispe David,9,0,0,1,0,0,1,1,0,0,1,0,0
14,Juan de la Cruz Claderon Pardo,6,1,0,0,0,1,0,1,0,0,1,0,1
15,Fredy Mormontoy Hancco,14,0,0,0,1,1,0,1,1,0,0,0,1
16,Yeferson Yapura Tumpay,11,1,0,0,0,0,1,0,0,1,1,0,0
17,Jose Claudio Ccorahua Benitez,6,1,0,0,0,0,0,0,1,1,0,1,0
18,Jose Luis Pezo Soto,12,1,0,0,0,1,1,1,0,1,1,0,1
19,"CALLAÑAUPA MAÑACCASA, Yharet Lauro",11,1,0,0,0,1,1,1,1,0,1,0,1
20,"cervantes Guevara, Richar",7,0,1,0,0,1,0,1,0,1,0,1,1
21,"HUALVERDE ONTON, LuCERO",12,0,1,0,0,0,0,0,0,1,0,1,0
22,Daniel Alcides Carrion Herrera,11,0,1,0,0,0,0,0,0,0,0,1,0
23,"Pañihuara Arana, Lisbeth Rocio",9,0,1,0,0,1,0,1,1,0,1,1,1
24,"Chullo Holguin, Luz Angela",11,1,0,0,0,1,0,0,0,1,0,1,1
25,"CUSIHUAMAN QUISPE, Luz fabiola",11,1,0,0,0,1,1,0,0,0,1,0,0
26,Callañaupa Ubalde Luis,7,1,0,0,0,1,0,0,0,1,0,0,1
27,Rutseli Prieto Quispe,10,1,0,0,0,0,1,0,0,1,1,0,0
28,Ana Lucero Ayrampo Guzman,9,1,0,0,0,0,0,0,0,0,0,1,0
29,Mayra Cristaly Torres Paredes,15,1,0,0,0,0,0,0,0,0,0,1,0
30,"Quisppe Huallpayunca, Franklin",7,1,0,0,0,0,0,1,0,1,0,1,1
31,"Huamán Ibarra, Angela",11,0,1,0,0,1,1,1,0,0,0,1,1
32,Melany fabiola Tapia Pariona,7,1,0,0,0,0,0,0,0,0,0,1,0
33,Aron Rodrigo Huamán M.,11,1,0,0,0,0,0,0,0,0,0,1,0
34,Mauricio Champi Aragon,9,0,0,1,0,1,0,1,1,0,1,0,1
35,José Alejandro Laurel Carrasco,7,1,0,0,0,0,0,0,0,0,0,1,0
36,"MAÑACCASA FRANCO, Shania Bridig",12,1,0,0,0,0,1,1,1,0,0,0,0
37,"HUAMAN INQUILTUPA, Lucio",12,1,0,0,0,1,1,1,1,0,1,0,1
38,kevin florez Farfan,11,1,0,0,0,0,0,0,0,0,0,1,0
39,Melvin Quispe Carrion,9,1,0,0,0,1,0,1,0,0,0,1,0
40,Luis Gabriel Pomarrosa Quispe,9,0,0,1,0,1,1,1,0,0,0,0,1
41,Fredy Mormontoy Hancco,14,0,0,0,1,1,0,1,1,0,0,0,1
42,Pezo Soto Maria Elena,8,1,0,0,0,1,1,0,0,0,0,0,0
43,Jose Alberto Suna Apaza,12,0,1,0,0,0,0,0,0,1,0,0,0
44,"Alfaro Huamán, Vilma",10,1,0,0,0,1,1,1,1,0,1,1,1
45,"CORONADO CONDORI, Arnol",12,0,1,0,0,0,0,1,1,0,1,0,0
46,"NINAHUILLCA SUPA,  Ruth Meri",11,1,0,0,0,1,1,1,0,0,0,1,0
47,Alonzo Chaiña Mamani,7,0,0,0,1,1,1,1,1,0,1,0,1
48,"Cusihuaman Quispe, alex F.",11,1,0,0,0,0,0,0,0,0,0,0,0
49,"Quispe Quispoe, Josue",11,1,0,0,0,1,0,0,0,0,0,0,0
50,"Quispe Quispe, Miriam",9,0,0,1,0,0,0,1,1,0,1,1,1
51,Yadiel. Enriquez Otazú,7,1,0,0,0,0,1,1,1,0,1,0,0
52,"FLORES VARGAS, Fiorela",11,0,0,0,1,0,1,1,0,1,0,1,0
53,Sumi Flores Alvarez,10,1,0,0,0,1,0,0,0,0,0,1,0
54,"Almanza Quispe, Bayron",7,0,0,0,1,1,0,1,0,1,0,0,1
55,Anderson Romero Huaman,12,0,0,1,0,1,1,0,0,1,1,0,0
56,Rodrigo Pichihua Moscoso,10,0,1,0,0,0,0,0,0,0,0,1,0
57,Marcela del Carmen Yarin M.,8,1,0,0,0,0,0,0,0,0,0,1,0
58,Marcos Julian Aguirre Manrique,9,0,1,0,0,0,1,1,0,0,0,1,0
59,"CORONEL CANCINES, Dulia",11,0,0,0,1,0,0,1,1,0,1,0,1
60,Maricelo Huamán Usca,7,1,0,0,0,0,0,0,0,0,0,1,0
61,Jeferson Jaime Ccala Romero,11,0,1,0,0,0,0,0,0,0,0,1,0
62,Anali Huaman Melo,9,1,0,0,0,0,0,0,0,1,0,1,0
63,Juan Diego Llave Challapa,8,1,0,0,0,0,0,0,0,1,0,1,0
64,Nicol Rios Meza,11,1,0,0,0,0,1,0,0,0,1,0,0
65,Nelly Quispe Gonzales,12,0,0,1,0,0,0,0,0,1,0,0,0
66,"Vivanco Quispe, Julio César",8,1,0,0,0,1,0,1,0,0,1,1,1
67,Belinda Ticona Rivas,9,1,0,0,0,0,0,0,0,1,0,1,0
68,Luis Fernando Bernal Bravo,8,0,1,0,0,0,0,0,1,0,1,0,0
69,"QUILLAHUAMAN HUAMAN, Jinmi",12,1,0,0,0,0,0,1,1,0,1,0,1
70,Juvenal Duran Escobedo,9,1,0,0,0,0,0,0,0,0,0,1,0
71,"GAVANCHO CAMERO, Michael",11,0,1,0,0,1,1,1,1,0,1,0,1
72,Luz Adriana Meza Saire,8,1,0,0,0,1,1,1,1,0,1,0,1
73,Eyvind Quispe Prieto,9,1,0,0,0,0,0,0,0,0,0,1,0
74,Kenyi Anyelo Guzman Quispe,9,0,1,0,0,0,0,0,1,0,0,0,0
75,"ZARABIA PARIGUNA, MARLENY",11,1,0,0,0,0,0,0,0,1,0,1,0
76,"YUPANQUI QUISPE, Yercy Gilmar",11,0,0,1,0,0,1,1,0,0,1,0,1
77,Gonzalo Callñaupa Cespedes,7,0,1,0,0,1,1,0,0,0,0,0,0
78,Gabriel M. Aquino Zamalloa,12,0,1,0,0,0,0,0,0,0,0,1,0
79,Franklin Quispe bautista,9,0,1,0,0,0,1,1,0,0,1,0,1
80,"PANTIGOSOSO SALLO, Ana",13,1,0,0,0,0,1,1,1,0,1,0,1
81,"SURCO MACHACA, Alexandra",11,1,0,0,0,1,0,0,1,0,1,0,1
82,Blanca Luz Abalos Benites,11,1,0,0,0,0,0,0,0,0,0,1,0
83,Mamani Mamani Hebert,10,1,0,0,0,1,1,1,0,0,1,0,1
84,,12,1,0,0,1,0,0,1,0,0,1,0,1
85,Kleisman Mozo Cusihuallpa,7,1,0,0,0,0,0,0,0,0,0,1,0
86,Yeni Ataulluco Ayma,6,1,0,0,0,1,0,1,0,1,0,0,1
87,Erick Yauri Quillahuaman,12,1,0,0,0,1,1,0,0,1,1,0,0
88,Mauricio Champi Aragon,9,0,0,1,0,1,0,1,1,0,1,0,1
89,Blanca Herrera Justiniani,6,1,0,0,0,0,0,0,0,1,0,1,0
90,YAPU AYME Hayder,11,1,0,0,0,1,1,0,0,1,0,1,0
91,"FRANCO CARRASCO, Luis Antonio",12,1,0,0,0,0,0,1,1,0,1,0,1
92,"Ccasa Huallpayunca, Maruja",12,1,0,0,0,0,0,1,0,1,0,0,1
93,Flor de Maria Ccasa Soto,9,0,1,0,1,1,1,1,1,0,1,0,1
94,Diego Gutierrez,7,1,0,0,0,0,0,0,0,0,0,1,0
95,"GIL FIGUEROA, Heidan Toribio",11,1,0,0,0,0,1,1,1,0,1,0,1
96,Josefina Prieto Quispe,8,0,0,0,1,1,1,0,1,0,1,0,1
97,Benjamin Angel Ccorahua Benitez,6,1,0,0,1,0,0,0,1,1,0,1,0
98,Yashiira Ormachea Paredes,10,1,0,0,0,0,0,0,0,0,0,1,0
99,Caballero Rivera Samuel Alexis,9,1,0,0,0,0,0,0,0,1,0,1,0
100,Sarita Callañaupa Ubalde,12,1,0,0,0,1,1,0,0,1,0,0,1
101,"HUALVERDE ONTON, LuCERO",12,0,1,0,0,0,0,0,0,1,0,1,0
102,Daniel Alcides Carrion Herrera,11,0,1,0,0,0,0,0,0,0,0,1,0
103,"Pañihuara Arana, Lisbeth Rocio",9,0,1,0,0,1,0,1,1,0,1,1,1
104,"Chullo Holguin, Luz Angela",11,1,0,0,0,1,0,0,0,1,0,1,1
105,"CUSIHUAMAN QUISPE, Luz fabiola",11,1,0,0,0,1,1,0,0,0,1,0,0
106,Callañaupa Ubalde Luis,7,1,0,0,0,1,0,0,0,1,0,0,1
107,Rutseli Prieto Quispe,10,1,0,0,0,0,1,0,0,1,1,0,0
108,Ana Lucero Ayrampo Guzman,9,1,0,0,0,0,0,0,0,0,0,1,0
109,Mayra Cristaly Torres Paredes,15,1,0,0,0,0,0,0,0,0,0,1,0
110,"Quisppe Huallpayunca, Franklin",7,1,0,0,0,0,0,1,0,1,0,1,1
111,"Huamán Ibarra, Angela",11,0,1,0,0,1,1,1,0,0,0,1,1
112,Melany fabiola Tapia Pariona,7,1,0,0,0,0,0,0,0,0,0,1,0
113,Aron Rodrigo Huamán M.,11,1,0,0,0,0,0,0,0,0,0,1,0
114,Mauricio Champi Aragon,9,0,0,1,0,1,0,1,1,0,1,0,1
115,José Alejandro Laurel Carrasco,7,1,0,0,0,0,0,0,0,0,0,1,0
116,"MAÑACCASA FRANCO, Shania Bridig",12,1,0,0,0,0,1,1,1,0,0,0,0
117,"HUAMAN INQUILTUPA, Lucio",12,1,0,0,0,1,1,1,1,0,1,0,1
118,kevin florez Farfan,11,1,0,0,0,0,0,0,0,0,0,1,0
119,Melvin Quispe Carrion,9,1,0,0,0,1,0,1,0,0,0,1,0
120,Luis Gabriel Pomarrosa Quispe,9,0,0,1,0,1,1,1,0,0,0,0,1
121,Miguel A. Yauri Quillahuaman,10,1,0,0,0,0,1,0,0,0,1,0,0
122,Gabriel Ccoata Quispe,10,1,0,0,0,1,0,1,1,0,0,0,1
123,Gabriela Cjumo Ata,8,1,0,0,0,1,1,1,0,1,0,0,0
124,Dean Yhilmar Cansaya Gutierrez,11,0,1,0,0,0,1,0,0,1,0,0,0
125,Luis Gustavo Yarin Manrique,10,1,0,0,0,0,0,0,0,0,0,1,0
126,Tristan Florez Caviedes,7,0,0,1,0,1,1,0,0,0,1,0,0
127,"VILLACORTA CJUIRO, Pedro",11,0,0,1,0,1,1,0,0,1,0,1,0
128,Claudia Quispe Huillca,9,0,1,0,1,0,1,0,1,0,0,0,1
129,Fiorela Villafuerte Yarin,12,0,0,1,0,0,1,0,0,1,0,0,0
130,Smith Steven Huaman Quispe,7,1,0,0,0,0,1,0,0,1,0,0,1
131,Raul Esteban Consa Ccorahua,9,0,1,0,0,0,0,0,0,1,0,1,0
132,"Loayza Yupanqui, Abel J.",7,0,0,1,0,1,1,1,1,0,1,1,1
133,Huamán Quispe David,9,0,0,1,0,0,1,1,0,0,1,0,0
134,Juan de la Cruz Claderon Pardo,6,1,0,0,0,1,0,1,0,0,1,0,1
135,Fredy Mormontoy Hancco,14,0,0,0,1,1,0,1,1,0,0,0,1
136,Yeferson Yapura Tumpay,11,1,0,0,0,0,1,0,0,1,1,0,0
137,Jose Claudio Ccorahua Benitez,6,1,0,0,0,0,0,0,1,1,0,1,0
138,Jose Luis Pezo Soto,12,1,0,0,0,1,1,1,0,1,1,0,1
139,"CALLAÑAUPA MAÑACCASA, Yharet Lauro",11,1,0,0,0,1,1,1,1,0,1,0,1
140,"cervantes Guevara, Richar",7,0,1,0,0,1,0,1,0,1,0,1,1
141,"SURCO MACHACA, Alexandra",11,1,0,0,0,1,0,0,1,0,1,0,1
142,Blanca Luz Abalos Benites,11,1,0,0,0,0,0,0,0,0,0,1,0
143,Mamani Mamani Hebert,10,1,0,0,0,1,1,1,0,0,1,0,1
144,,12,1,0,0,1,0,0,1,0,0,1,0,1
145,Kleisman Mozo Cusihuallpa,7,1,0,0,0,0,0,0,0,0,0,1,0
146,Yeni Ataulluco Ayma,6,1,0,0,0,1,0,1,0,1,0,0,1
147,Erick Yauri Quillahuaman,12,1,0,0,0,1,1,0,0,1,1,0,0
148,Mauricio Champi Aragon,9,0,0,1,0,1,0,1,1,0,1,0,1
149,Blanca Herrera Justiniani,6,1,0,0,0,0,0,0,0,1,0,1,0
150,YAPU AYME Hayder,11,1,0,0,0,1,1,0,0,1,0,1,0
151,"FRANCO CARRASCO, Luis Antonio",12,1,0,0,0,0,0,1,1,0,1,0,1
152,"Ccasa Huallpayunca, Maruja",12,1,0,0,0,0,0,1,0,1,0,0,1
153,Flor de Maria Ccasa Soto,9,0,1,0,1,1,1,1,1,0,1,0,1
154,Diego Gutierrez,7,1,0,0,0,0,0,0,0,0,0,1,0
155,"GIL FIGUEROA, Heidan Toribio",11,1,0,0,0,0,1,1,1,0,1,0,1
156,Josefina Prieto Quispe,8,0,0,0,1,1,1,0,1,0,1,0,1
157,Benjamin Angel Ccorahua Benitez,6,1,0,0,1,0,0,0,1,1,0,1,0
158,Yashiira Ormachea Paredes,10,1,0,0,0,0,0,0,0,0,0,1,0
159,Caballero Rivera Samuel Alexis,9,1,0,0,0,0,0,0,0,1,0,1,0
160,Sarita Callañaupa Ubalde,12,1,0,0,0,1,1,0,0,1,0,0,1
161,Fredy Mormontoy Hancco,14,0,0,0,1,1,0,1,1,0,0,0,1
162,Pezo Soto Maria Elena,8,1,0,0,0,1,1,0,0,0,0,0,0
163,Jose Alberto Suna Apaza,12,0,1,0,0,0,0,0,0,1,0,0,0
164,"Alfaro Huamán, Vilma",10,1,0,0,0,1,1,1,1,0,1,1,1
165,"CORONADO CONDORI, Arnol",12,0,1,0,0,0,0,1,1,0,1,0,0
166,"NINAHUILLCA SUPA,  Ruth Meri",11,1,0,0,0,1,1,1,0,0,0,1,0
167,Alonzo Chaiña Mamani,7,0,0,0,1,1,1,1,1,0,1,0,1
168,"Cusihuaman Quispe, alex F.",11,1,0,0,0,0,0,0,0,0,0,0,0
169,"Quispe Quispoe, Josue",11,1,0,0,0,1,0,0,0,0,0,0,0
170,"Quispe Quispe, Miriam",9,0,0,1,0,0,0,1,1,0,1,1,1
171,Yadiel. Enriquez Otazú,7,1,0,0,0,0,1,1,1,0,1,0,0
172,"FLORES VARGAS, Fiorela",11,0,0,0,1,0,1,1,0,1,0,1,0
173,Sumi Flores Alvarez,10,1,0,0,0,1,0,0,0,0,0,1,0
174,"Almanza Quispe, Bayron",7,0,0,0,1,1,0,1,0,1,0,0,1
175,Anderson Romero Huaman,12,0,0,1,0,1,1,0,0,1,1,0,0
176,Rodrigo Pichihua Moscoso,10,0,1,0,0,0,0,0,0,0,0,1,0
177,Marcela del Carmen Yarin M.,8,1,0,0,0,0,0,0,0,0,0,1,0
178,Marcos Julian Aguirre Manrique,9,0,1,0,0,0,1,1,0,0,0,1,0
179,"CORONEL CANCINES, Dulia",11,0,0,0,1,0,0,1,1,0,1,0,1
180,Maricelo Huamán Usca,7,1,0,0,0,0,0,0,0,0,0,1,0
181,Jeferson Jaime Ccala Romero,11,0,1,0,0,0,0,0,0,0,0,1,0
182,Anali Huaman Melo,9,1,0,0,0,0,0,0,0,1,0,1,0
183,Juan Diego Llave Challapa,8,1,0,0,0,0,0,0,0,1,0,1,0
184,Nicol Rios Meza,11,1,0,0,0,0,1,0,0,0,1,0,0
185,Nelly Quispe Gonzales,12,0,0,1,0,0,0,0,0,1,0,0,0
186,"Vivanco Quispe, Julio César",8,1,0,0,0,1,0,1,0,0,1,1,1
187,Belinda Ticona Rivas,9,1,0,0,0,0,0,0,0,1,0,1,0
188,Luis Fernando Bernal Bravo,8,0,1,0,0,0,0,0,1,0,1,0,0
189,"QUILLAHUAMAN HUAMAN, Jinmi",12,1,0,0,0,0,0,1,1,0,1,0,1
190,Juvenal Duran Escobedo,9,1,0,0,0,0,0,0,0,0,0,1,0
191,"GAVANCHO CAMERO, Michael",11,0,1,0,0,1,1,1,1,0,1,0,1
192,Luz Adriana Meza Saire,8,1,0,0,0,1,1,1,1,0,1,0,1
193,Eyvind Quispe Prieto,9,1,0,0,0,0,0,0,0,0,0,1,0
194,Kenyi Anyelo Guzman Quispe,9,0,1,0,0,0,0,0,1,0,0,0,0
195,"ZARABIA PARIGUNA, MARLENY",11,1,0,0,0,0,0,0,0,1,0,1,0
196,"YUPANQUI QUISPE, Yercy Gilmar",11,0,0,1,0,0,1,1,0,0,1,0,1
197,Gonzalo Callñaupa Cespedes,7,0,1,0,0,1,1,0,0,0,0,0,0
198,Gabriel M. Aquino Zamalloa,12,0,1,0,0,0,0,0,0,0,0,1,0
199,Franklin Quispe bautista,9,0,1,0,0,0,1,1,0,0,1,0,1
200,"PANTIGOSOSO SALLO, Ana",13,1,0,0,0,0,1,1,1,0,1,0,1
201,Fredy Mormontoy Hancco,14,0,0,0,1,1,0,1,1,0,0,0,1
202,Pezo Soto Maria Elena,8,1,0,0,0,1,1,0,0,0,0,0,0
203,Jose Alberto Suna Apaza,12,0,1,0,0,0,0,0,0,1,0,0,0
204,"Alfaro Huamán, Vilma",10,1,0,0,0,1,1,1,1,0,1,1,1
205,"CORONADO CONDORI, Arnol",12,0,1,0,0,0,0,1,1,0,1,0,0
206,"NINAHUILLCA SUPA,  Ruth Meri",11,1,0,0,0,1,1,1,0,0,0,1,0
207,Alonzo Chaiña Mamani,7,0,0,0,1,1,1,1,1,0,1,0,1
208,"Cusihuaman Quispe, alex F.",11,1,0,0,0,0,0,0,0,0,0,0,0
209,"Quispe Quispoe, Josue",11,1,0,0,0,1,0,0,0,0,0,0,0
210,"Quispe Quispe, Miriam",9,0,0,1,0,0,0,1,1,0,1,1,1
211,Yadiel. Enriquez Otazú,7,1,0,0,0,0,1,1,1,0,1,0,0
212,"FLORES VARGAS, Fiorela",11,0,0,0,1,0,1,1,0,1,0,1,0
213,Sumi Flores Alvarez,10,1,0,0,0,1,0,0,0,0,0,1,0
214,"Almanza Quispe, Bayron",7,0,0,0,1,1,0,1,0,1,0,0,1
215,Anderson Romero Huaman,12,0,0,1,0,1,1,0,0,1,1,0,0
216,Rodrigo Pichihua Moscoso,10,0,1,0,0,0,0,0,0,0,0,1,0
217,Marcela del Carmen Yarin M.,8,1,0,0,0,0,0,0,0,0,0,1,0
218,Marcos Julian Aguirre Manrique,9,0,1,0,0,0,1,1,0,0,0,1,0
219,"CORONEL CANCINES, Dulia",11,0,0,0,1,0,0,1,1,0,1,0,1
220,Maricelo Huamán Usca,7,1,0,0,0,0,0,0,0,0,0,1,0
221,Jeferson Jaime Ccala Romero,11,0,1,0,0,0,0,0,0,0,0,1,0
222,Anali Huaman Melo,9,1,0,0,0,0,0,0,0,1,0,1,0
223,Juan Diego Llave Challapa,8,1,0,0,0,0,0,0,0,1,0,1,0
224,Nicol Rios Meza,11,1,0,0,0,0,1,0,0,0,1,0,0
225,Nelly Quispe Gonzales,12,0,0,1,0,0,0,0,0,1,0,0,0
226,"Vivanco Quispe, Julio César",8,1,0,0,0,1,0,1,0,0,1,1,1
227,Belinda Ticona Rivas,9,1,0,0,0,0,0,0,0,1,0,1,0
228,Luis Fernando Bernal Bravo,8,0,1,0,0,0,0,0,1,0,1,0,0
229,"QUILLAHUAMAN HUAMAN, Jinmi",12,1,0,0,0,0,0,1,1,0,1,0,1
230,Juvenal Duran Escobedo,9,1,0,0,0,0,0,0,0,0,0,1,0
231,"GAVANCHO CAMERO, Michael",11,0,1,0,0,1,1,1,1,0,1,0,1
232,Luz Adriana Meza Saire,8,1,0,0,0,1,1,1,1,0,1,0,1
233,Eyvind Quispe Prieto,9,1,0,0,0,0,0,0,0,0,0,1,0
234,Kenyi Anyelo Guzman Quispe,9,0,1,0,0,0,0,0,1,0,0,0,0
235,"ZARABIA PARIGUNA, MARLENY",11,1,0,0,0,0,0,0,0,1,0,1,0
236,"YUPANQUI QUISPE, Yercy Gilmar",11,0,0,1,0,0,1,1,0,0,1,0,1
237,Gonzalo Callñaupa Cespedes,7,0,1,0,0,1,1,0,0,0,0,0,0
238,Gabriel M. Aquino Zamalloa,12,0,1,0,0,0,0,0,0,0,0,1,0
239,Franklin Quispe bautista,9,0,1,0,0,0,1,1,0,0,1,0,1
240,"PANTIGOSOSO SALLO, Ana",13,1,0,0,0,0,1,1,1,0,1,0,1
241,Miguel A. Yauri Quillahuaman,10,1,0,0,0,0,1,0,0,0,1,0,0
242,Gabriel Ccoata Quispe,10,1,0,0,0,1,0,1,1,0,0,0,1
243,Gabriela Cjumo Ata,8,1,0,0,0,1,1,1,0,1,0,0,0
244,Dean Yhilmar Cansaya Gutierrez,11,0,1,0,0,0,1,0,0,1,0,0,0
245,Luis Gustavo Yarin Manrique,10,1,0,0,0,0,0,0,0,0,0,1,0
246,Tristan Florez Caviedes,7,0,0,1,0,1,1,0,0,0,1,0,0
247,"VILLACORTA CJUIRO, Pedro",11,0,0,1,0,1,1,0,0,1,0,1,0
248,Claudia Quispe Huillca,9,0,1,0,1,0,1,0,1,0,0,0,1
249,Fiorela Villafuerte Yarin,12,0,0,1,0,0,1,0,0,1,0,0,0
250,Smith Steven Huaman Quispe,7,1,0,0,0,0,1,0,0,1,0,0,1
251,Raul Esteban Consa Ccorahua,9,0,1,0,0,0,0,0,0,1,0,1,0
252,"Loayza Yupanqui, Abel J.",7,0,0,1,0,1,1,1,1,0,1,1,1
253,Huamán Quispe David,9,0,0,1,0,0,1,1,0,0,1,0,0
254,Juan de la Cruz Claderon Pardo,6,1,0,0,0,1,0,1,0,0,1,0,1
255,Fredy Mormontoy Hancco,14,0,0,0,1,1,0,1,1,0,0,0,1
256,Yeferson Yapura Tumpay,11,1,0,0,0,0,1,0,0,1,1,0,0
257,Jose Claudio Ccorahua Benitez,6,1,0,0,0,0,0,0,1,1,0,1,0
258,Jose Luis Pezo Soto,12,1,0,0,0,1,1,1,0,1,1,0,1
259,"CALLAÑAUPA MAÑACCASA, Yharet Lauro",11,1,0,0,0,1,1,1,1,0,1,0,1
260,"cervantes Guevara, Richar",7,0,1,0,0,1,0,1,0,1,0,1,1
261,"HUALVERDE ONTON, LuCERO",12,0,1,0,0,0,0,0,0,1,0,1,0
262,Daniel Alcides Carrion Herrera,11,0,1,0,0,0,0,0,0,0,0,1,0
263,"Pañihuara Arana, Lisbeth Rocio",9,0,1,0,0,1,0,1,1,0,1,1,1
264,"Chullo Holguin, Luz Angela",11,1,0,0,0,1,0,0,0,1,0,1,1
265,"CUSIHUAMAN QUISPE, Luz fabiola",11,1,0,0,0,1,1,0,0,0,1,0,0
266,Callañaupa Ubalde Luis,7,1,0,0,0,1,0,0,0,1,0,0,1
267,Rutseli Prieto Quispe,10,1,0,0,0,0,1,0,0,1,1,0,0
268,Ana Lucero Ayrampo Guzman,9,1,0,0,0,0,0,0,0,0,0,1,0
269,Mayra Cristaly Torres Paredes,15,1,0,0,0,0,0,0,0,0,0,1,0
270,"Quisppe Huallpayunca, Franklin",7,1,0,0,0,0,0,1,0,1,0,1,1
271,"Huamán Ibarra, Angela",11,0,1,0,0,1,1,1,0,0,0,1,1
272,Melany fabiola Tapia Pariona,7,1,0,0,0,0,0,0,0,0,0,1,0
273,Aron Rodrigo Huamán M.,11,1,0,0,0,0,0,0,0,0,0,1,0
274,Mauricio Champi Aragon,9,0,0,1,0,1,0,1,1,0,1,0,1
275,José Alejandro Laurel Carrasco,7,1,0,0,0,0,0,0,0,0,0,1,0
276,"MAÑACCASA FRANCO, Shania Bridig",12,1,0,0,0,0,1,1,1,0,0,0,0
277,"HUAMAN INQUILTUPA, Lucio",12,1,0,0,0,1,1,1,1,0,1,0,1
278,kevin florez Farfan,11,1,0,0,0,0,0,0,0,0,0,1,0
279,Melvin Quispe Carrion,9,1,0,0,0,1,0,1,0,0,0,1,0
280,Luis Gabriel Pomarrosa Quispe,9,0,0,1,0,1,1,1,0,0,0,0,1
281,Fredy Mormontoy Hancco,14,0,0,0,1,1,0,1,1,0,0,0,1
282,Pezo Soto Maria Elena,8,1,0,0,0,1,1,0,0,0,0,0,0
283,Jose Alberto Suna Apaza,12,0,1,0,0,0,0,0,0,1,0,0,0
284,"Alfaro Huamán, Vilma",10,1,0,0,0,1,1,1,1,0,1,1,1
285,"CORONADO CONDORI, Arnol",12,0,1,0,0,0,0,1,1,0,1,0,0
286,"NINAHUILLCA SUPA,  Ruth Meri",11,1,0,0,0,1,1,1,0,0,0,1,0
287,Alonzo Chaiña Mamani,7,0,0,0,1,1,1,1,1,0,1,0,1
288,"Cusihuaman Quispe, alex F.",11,1,0,0,0,0,0,0,0,0,0,0,0
289,"Quispe Quispoe, Josue",11,1,0,0,0,1,0,0,0,0,0,0,0
290,"Quispe Quispe, Miriam",9,0,0,1,0,0,0,1,1,0,1,1,1
291,Yadiel. Enriquez Otazú,7,1,0,0,0,0,1,1,1,0,1,0,0
292,"FLORES VARGAS, Fiorela",11,0,0,0,1,0,1,1,0,1,0,1,0
293,Sumi Flores Alvarez,10,1,0,0,0,1,0,0,0,0,0,1,0
294,"Almanza Quispe, Bayron",7,0,0,0,1,1,0,1,0,1,0,0,1
295,Anderson Romero Huaman,12,0,0,1,0,1,1,0,0,1,1,0,0
296,Rodrigo Pichihua Moscoso,10,0,1,0,0,0,0,0,0,0,0,1,0
297,Marcela del Carmen Yarin M.,8,1,0,0,0,0,0,0,0,0,0,1,0
298,Marcos Julian Aguirre Manrique,9,0,1,0,0,0,1,1,0,0,0,1,0
299,"CORONEL CANCINES, Dulia",11,0,0,0,1,0,0,1,1,0,1,0,1
300,Maricelo Huamán Usca,7,1,0,0,0,0,0,0,0,0,0,1,0
301,Jeferson Jaime Ccala Romero,11,0,1,0,0,0,0,0,0,0,0,1,0
302,Anali Huaman Melo,9,1,0,0,0,0,0,0,0,1,0,1,0
303,Juan Diego Llave Challapa,8,1,0,0,0,0,0,0,0,1,0,1,0
304,Nicol Rios Meza,11,1,0,0,0,0,1,0,0,0,1,0,0
305,Nelly Quispe Gonzales,12,0,0,1,0,0,0,0,0,1,0,0,0
306,"Vivanco Quispe, Julio César",8,1,0,0,0,1,0,1,0,0,1,1,1
307,Belinda Ticona Rivas,9,1,0,0,0,0,0,0,0,1,0,1,0
308,Luis Fernando Bernal Bravo,8,0,1,0,0,0,0,0,1,0,1,0,0
309,"QUILLAHUAMAN HUAMAN, Jinmi",12,1,0,0,0,0,0,1,1,0,1,0,1
310,Juvenal Duran Escobedo,9,1,0,0,0,0,0,0,0,0,0,1,0
311,"GAVANCHO CAMERO, Michael",11,0,1,0,0,1,1,1,1,0,1,0,1
312,Luz Adriana Meza Saire,8,1,0,0,0,1,1,1,1,0,1,0,1
313,Eyvind Quispe Prieto,9,1,0,0,0,0,0,0,0,0,0,1,0
314,Kenyi Anyelo Guzman Quispe,9,0,1,0,0,0,0,0,1,0,0,0,0
315,"ZARABIA PARIGUNA, MARLENY",11,1,0,0,0,0,0,0,0,1,0,1,0
316,"YUPANQUI QUISPE, Yercy Gilmar",11,0,0,1,0,0,1,1,0,0,1,0,1
317,Gonzalo Callñaupa Cespedes,7,0,1,0,0,1,1,0,0,0,0,0,0
318,Gabriel M. Aquino Zamalloa,12,0,1,0,0,0,0,0,0,0,0,1,0
319,Franklin Quispe bautista,9,0,1,0,0,0,1,1,0,0,1,0,1
320,"PANTIGOSOSO SALLO, Ana",13,1,0,0,0,0,1,1,1,0,1,0,1
321,"SURCO MACHACA, Alexandra",11,1,0,0,0,1,0,0,1,0,1,0,1
322,Blanca Luz Abalos Benites,11,1,0,0,0,0,0,0,0,0,0,1,0
323,Mamani Mamani Hebert,10,1,0,0,0,1,1,1,0,0,1,0,1
324,,12,1,0,0,1,0,0,1,0,0,1,0,1
325,Kleisman Mozo Cusihuallpa,7,1,0,0,0,0,0,0,0,0,0,1,0
326,Yeni Ataulluco Ayma,6,1,0,0,0,1,0,1,0,1,0,0,1
327,Erick Yauri Quillahuaman,12,1,0,0,0,1,1,0,0,1,1,0,0
328,Mauricio Champi Aragon,9,0,0,1,0,1,0,1,1,0,1,0,1
329,Blanca Herrera Justiniani,6,1,0,0,0,0,0,0,0,1,0,1,0
330,YAPU AYME Hayder,11,1,0,0,0,1,1,0,0,1,0,1,0
331,"FRANCO CARRASCO, Luis Antonio",12,1,0,0,0,0,0,1,1,0,1,0,1
332,"Ccasa Huallpayunca, Maruja",12,1,0,0,0,0,0,1,0,1,0,0,1
333,Flor de Maria Ccasa Soto,9,0,1,0,1,1,1,1,1,0,1,0,1
334,Diego Gutierrez,7,1,0,0,0,0,0,0,0,0,0,1,0
335,"GIL FIGUEROA, Heidan Toribio",11,1,0,0,0,0,1,1,1,0,1,0,1
336,Josefina Prieto Quispe,8,0,0,0,1,1,1,0,1,0,1,0,1
337,Benjamin Angel Ccorahua Benitez,6,1,0,0,1,0,0,0,1,1,0,1,0
338,Yashiira Ormachea Paredes,10,1,0,0,0,0,0,0,0,0,0,1,0
339,Caballero Rivera Samuel Alexis,9,1,0,0,0,0,0,0,0,1,0,1,0
340,Sarita Callañaupa Ubalde,12,1,0,0,0,1,1,0,0,1,0,0,1
341,"HUALVERDE ONTON, LuCERO",12,0,1,0,0,0,0,0,0,1,0,1,0
342,Daniel Alcides Carrion Herrera,11,0,1,0,0,0,0,0,0,0,0,1,0
343,"Pañihuara Arana, Lisbeth Rocio",9,0,1,0,0,1,0,1,1,0,1,1,1
344,"Chullo Holguin, Luz Angela",11,1,0,0,0,1,0,0,0,1,0,1,1
345,"CUSIHUAMAN QUISPE, Luz fabiola",11,1,0,0,0,1,1,0,0,0,1,0,0
346,Callañaupa Ubalde Luis,7,1,0,0,0,1,0,0,0,1,0,0,1
347,Rutseli Prieto Quispe,10,1,0,0,0,0,1,0,0,1,1,0,0
348,Ana Lucero Ayrampo Guzman,9,1,0,0,0,0,0,0,0,0,0,1,0
349,Mayra Cristaly Torres Paredes,15,1,0,0,0,0,0,0,0,0,0,1,0
350,"Quisppe Huallpayunca, Franklin",7,1,0,0,0,0,0,1,0,1,0,1,1
351,"Huamán Ibarra, Angela",11,0,1,0,0,1,1,1,0,0,0,1,1
352,Melany fabiola Tapia Pariona,7,1,0,0,0,0,0,0,0,0,0,1,0
353,Aron Rodrigo Huamán M.,11,1,0,0,0,0,0,0,0,0,0,1,0
354,Mauricio Champi Aragon,9,0,0,1,0,1,0,1,1,0,1,0,1
355,José Alejandro Laurel Carrasco,7,1,0,0,0,0,0,0,0,0,0,1,0
356,"MAÑACCASA FRANCO, Shania Bridig",12,1,0,0,0,0,1,1,1,0,0,0,0
357,"HUAMAN INQUILTUPA, Lucio",12,1,0,0,0,1,1,1,1,0,1,0,1
358,kevin florez Farfan,11,1,0,0,0,0,0,0,0,0,0,1,0
359,Melvin Quispe Carrion,9,1,0,0,0,1,0,1,0,0,0,1,0
360,Luis Gabriel Pomarrosa Quispe,9,0,0,1,0,1,1,1,0,0,0,0,1
361,Miguel A. Yauri Quillahuaman,10,1,0,0,0,0,1,0,0,0,1,0,0
362,Gabriel Ccoata Quispe,10,1,0,0,0,1,0,1,1,0,0,0,1
363,Gabriela Cjumo Ata,8,1,0,0,0,1,1,1,0,1,0,0,0
364,Dean Yhilmar Cansaya Gutierrez,11,0,1,0,0,0,1,0,0,1,0,0,0
365,Luis Gustavo Yarin Manrique,10,1,0,0,0,0,0,0,0,0,0,1,0
366,Tristan Florez Caviedes,7,0,0,1,0,1,1,0,0,0,1,0,0
367,"VILLACORTA CJUIRO, Pedro",11,0,0,1,0,1,1,0,0,1,0,1,0
368,Claudia Quispe Huillca,9,0,1,0,1,0,1,0,1,0,0,0,1
369,Fiorela Villafuerte Yarin,12,0,0,1,0,0,1,0,0,1,0,0,0
370,Smith Steven Huaman Quispe,7,1,0,0,0,0,1,0,0,1,0,0,1
371,Raul Esteban Consa Ccorahua,9,0,1,0,0,0,0,0,0,1,0,1,0
372,"Loayza Yupanqui, Abel J.",7,0,0,1,0,1,1,1,1,0,1,1,1
373,Huamán Quispe David,9,0,0,1,0,0,1,1,0,0,1,0,0
374,Juan de la Cruz Claderon Pardo,6,1,0,0,0,1,0,1,0,0,1,0,1
375,Fredy Mormontoy Hancco,14,0,0,0,1,1,0,1,1,0,0,0,1
376,Yeferson Yapura Tumpay,11,1,0,0,0,0,1,0,0,1,1,0,0
377,Jose Claudio Ccorahua Benitez,6,1,0,0,0,0,0,0,1,1,0,1,0
378,Jose Luis Pezo Soto,12,1,0,0,0,1,1,1,0,1,1,0,1
379,"CALLAÑAUPA MAÑACCASA, Yharet Lauro",11,1,0,0,0,1,1,1,1,0,1,0,1
380,"cervantes Guevara, Richar",7,0,1,0,0,1,0,1,0,1,0,1,1
381,"SURCO MACHACA, Alexandra",11,1,0,0,0,1,0,0,1,0,1,0,1
382,Blanca Luz Abalos Benites,11,1,0,0,0,0,0,0,0,0,0,1,0
383,Mamani Mamani Hebert,10,1,0,0,0,1,1,1,0,0,1,0,1
384,,12,1,0,0,1,0,0,1,0,0,1,0,1
385,Kleisman Mozo Cusihuallpa,7,1,0,0,0,0,0,0,0,0,0,1,0
386,Yeni Ataulluco Ayma,6,1,0,0,0,1,0,1,0,1,0,0,1
387,Erick Yauri Quillahuaman,12,1,0,0,0,1,1,0,0,1,1,0,0
388,Mauricio Champi Aragon,9,0,0,1,0,1,0,1,1,0,1,0,1
389,Blanca Herrera Justiniani,6,1,0,0,0,0,0,0,0,1,0,1,0
390,YAPU AYME Hayder,11,1,0,0,0,1,1,0,0,1,0,1,0
391,"FRANCO CARRASCO, Luis Antonio",12,1,0,0,0,0,0,1,1,0,1,0,1
392,"Ccasa Huallpayunca, Maruja",12,1,0,0,0,0,0,1,0,1,0,0,1
393,Flor de Maria Ccasa Soto,9,0,1,0,1,1,1,1,1,0,1,0,1
394,Diego Gutierrez,7,1,0,0,0,0,0,0,0,0,0,1,0
395,"GIL FIGUEROA, Heidan Toribio",11,1,0,0,0,0,1,1,1,0,1,0,1
396,Josefina Prieto Quispe,8,0,0,0,1,1,1,0,1,0,1,0,1
397,Benjamin Angel Ccorahua Benitez,6,1,0,0,1,0,0,0,1,1,0,1,0
398,Yashiira Ormachea Paredes,10,1,0,0,0,0,0,0,0,0,0,1,0
399,Caballero Rivera Samuel Alexis,9,1,0,0,0,0,0,0,0,1,0,1,0
400,Sarita Callañaupa Ubalde,12,1,0,0,0,1,1,0,0,1,0,0,1
401,"PANTIGOSOSO SALLO, Ana",13,1,0,0,0,0,1,1,1,0,1,0,1
402,"SURCO MACHACA, Alexandra",11,1,0,0,0,1,0,0,1,0,1,0,1
403,Blanca Luz Abalos Benites,11,1,0,0,0,0,0,0,0,0,0,1,0
404,Mamani Mamani Hebert,10,1,0,0,0,1,1,1,0,0,1,0,1
405,,12,1,0,0,1,0,0,1,0,0,1,0,1
406,Kleisman Mozo Cusihuallpa,7,1,0,0,0,0,0,0,0,0,0,1,0
407,Yeni Ataulluco Ayma,6,1,0,0,0,1,0,1,0,1,0,0,1
408,Erick Yauri Quillahuaman,12,1,0,0,0,1,1,0,0,1,1,0,0
409,Mauricio Champi Aragon,9,0,0,1,0,1,0,1,1,0,1,0,1
410,Blanca Herrera Justiniani,6,1,0,0,0,0,0,0,0,1,0,1,0
411,YAPU AYME Hayder,11,1,0,0,0,1,1,0,0,1,0,1,0
412,"FRANCO CARRASCO, Luis Antonio",12,1,0,0,0,0,0,1,1,0,1,0,1
413,"Ccasa Huallpayunca, Maruja",12,1,0,0,0,0,0,1,0,1,0,0,1
414,Flor de Maria Ccasa Soto,9,0,1,0,1,1,1,1,1,0,1,0,1
415,Diego Gutierrez,7,1,0,0,0,0,0,0,0,0,0,1,0
416,"GIL FIGUEROA, Heidan Toribio",11,1,0,0,0,0,1,1,1,0,1,0,1
417,Josefina Prieto Quispe,8,0,0,0,1,1,1,0,1,0,1,0,1
418,Benjamin Angel Ccorahua Benitez,6,1,0,0,1,0,0,0,1,1,0,1,0
419,Yashiira Ormachea Paredes,10,1,0,0,0,0,0,0,0,0,0,1,0
420,Caballero Rivera Samuel Alexis,9,1,0,0,0,0,0,0,0,1,0,1,0
421,Sarita Callañaupa Ubalde,12,1,0,0,0,1,1,0,0,1,0,0,1
422,"HUALVERDE ONTON, LuCERO",12,0,1,0,0,0,0,0,0,1,0,1,0
423,Daniel Alcides Carrion Herrera,11,0,1,0,0,0,0,0,0,0,0,1,0
424,"Pañihuara Arana, Lisbeth Rocio",9,0,1,0,0,1,0,1,1,0,1,1,1
425,"Chullo Holguin, Luz Angela",11,1,0,0,0,1,0,0,0,1,0,1,1
426,"CUSIHUAMAN QUISPE, Luz fabiola",11,1,0,0,0,1,1,0,0,0,1,0,0
427,Callañaupa Ubalde Luis,7,1,0,0,0,1,0,0,0,1,0,0,1
428,Rutseli Prieto Quispe,10,1,0,0,0,0,1,0,0,1,1,0,0
429,Ana Lucero Ayrampo Guzman,9,1,0,0,0,0,0,0,0,0,0,1,0
430,Mayra Cristaly Torres Paredes,15,1,0,0,0,0,0,0,0,0,0,1,0
431,"Quisppe Huallpayunca, Franklin",7,1,0,0,0,0,0,1,0,1,0,1,1
432,"Huamán Ibarra, Angela",11,0,1,0,0,1,1,1,0,0,0,1,1
433,Melany fabiola Tapia Pariona,7,1,0,0,0,0,0,0,0,0,0,1,0
434,Aron Rodrigo Huamán M.,11,1,0,0,0,0,0,0,0,0,0,1,0
435,Mauricio Champi Aragon,9,0,0,1,0,1,0,1,1,0,1,0,1
436,José Alejandro Laurel Carrasco,7,1,0,0,0,0,0,0,0,0,0,1,0
437,"MAÑACCASA FRANCO, Shania Bridig",12,1,0,0,0,0,1,1,1,0,0,0,0
438,"HUAMAN INQUILTUPA, Lucio",12,1,0,0,0,1,1,1,1,0,1,0,1
439,kevin florez Farfan,11,1,0,0,0,0,0,0,0,0,0,1,0
440,Melvin Quispe Carrion,9,1,0,0,0,1,0,1,0,0,0,1,0
441,Luis Gabriel Pomarrosa Quispe,9,0,0,1,0,1,1,1,0,0,0,0,1
442,Miguel A. Yauri Quillahuaman,10,1,0,0,0,0,1,0,0,0,1,0,0
443,Gabriel Ccoata Quispe,10,1,0,0,0,1,0,1,1,0,0,0,1
444,Gabriela Cjumo Ata,8,1,0,0,0,1,1,1,0,1,0,0,0
445,Dean Yhilmar Cansaya Gutierrez,11,0,1,0,0,0,1,0,0,1,0,0,0
446,Luis Gustavo Yarin Manrique,10,1,0,0,0,0,0,0,0,0,0,1,0
447,Tristan Florez Caviedes,7,0,0,1,0,1,1,0,0,0,1,0,0
448,"VILLACORTA CJUIRO, Pedro",11,0,0,1,0,1,1,0,0,1,0,1,0
449,Claudia Quispe Huillca,9,0,1,0,1,0,1,0,1,0,0,0,1
450,Fiorela Villafuerte Yarin,12,0,0,1,0,0,1,0,0,1,0,0,0
451,Smith Steven Huaman Quispe,7,1,0,0,0,0,1,0,0,1,0,0,1
452,Raul Esteban Consa Ccorahua,9,0,1,0,0,0,0,0,0,1,0,1,0
453,"Loayza Yupanqui, Abel J.",7,0,0,1,0,1,1,1,1,0,1,1,1
454,Huamán Quispe David,9,0,0,1,0,0,1,1,0,0,1,0,0
455,Juan de la Cruz Claderon Pardo,6,1,0,0,0,1,0,1,0,0,1,0,1
456,Fredy Mormontoy Hancco,14,0,0,0,1,1,0,1,1,0,0,0,1
457,Yeferson Yapura Tumpay,11,1,0,0,0,0,1,0,0,1,1,0,0
458,Jose Claudio Ccorahua Benitez,6,1,0,0,0,0,0,0,1,1,0,1,0
459,Jose Luis Pezo Soto,12,1,0,0,0,1,1,1,0,1,1,0,1
460,"CALLAÑAUPA MAÑACCASA, Yharet Lauro",11,1,0,0,0,1,1,1,1,0,1,0,1
461,"cervantes Guevara, Richar",7,0,1,0,0,1,0,1,0,1,0,1,1
462,"SURCO MACHACA, Alexandra",11,1,0,0,0,1,0,0,1,0,1,0,1
463,Blanca Luz Abalos Benites,11,1,0,0,0,0,0,0,0,0,0,1,0
464,Mamani Mamani Hebert,10,1,0,0,0,1,1,1,0,0,1,0,1
465,,12,1,0,0,1,0,0,1,0,0,1,0,1
466,Kleisman Mozo Cusihuallpa,7,1,0,0,0,0,0,0,0,0,0,1,0
467,Yeni Ataulluco Ayma,6,1,0,0,0,1,0,1,0,1,0,0,1
468,Erick Yauri Quillahuaman,12,1,0,0,0,1,1,0,0,1,1,0,0
469,Mauricio Champi Aragon,9,0,0,1,0,1,0,1,1,0,1,0,1
470,Blanca Herrera Justiniani,6,1,0,0,0,0,0,0,0,1,0,1,0
471,YAPU AYME Hayder,11,1,0,0,0,1,1,0,0,1,0,1,0
472,"FRANCO CARRASCO, Luis Antonio",12,1,0,0,0,0,0,1,1,0,1,0,1
473,"Ccasa Huallpayunca, Maruja",12,1,0,0,0,0,0,1,0,1,0,0,1
474,Flor de Maria Ccasa Soto,9,0,1,0,1,1,1,1,1,0,1,0,1
475,Diego Gutierrez,7,1,0,0,0,0,0,0,0,0,0,1,0
476,"GIL FIGUEROA, Heidan Toribio",11,1,0,0,0,0,1,1,1,0,1,0,1
477,Josefina Prieto Quispe,8,0,0,0,1,1,1,0,1,0,1,0,1
478,Benjamin Angel Ccorahua Benitez,6,1,0,0,1,0,0,0,1,1,0,1,0
479,Yashiira Ormachea Paredes,10,1,0,0,0,0,0,0,0,0,0,1,0
480,Caballero Rivera Samuel Alexis,9,1,0,0,0,0,0,0,0,1,0,1,0
481,Sarita Callañaupa Ubalde,12,1,0,0,0,1,1,0,0,1,0,0,1
482,Gabriel Ccoata Quispe,10,1,0,0,0,1,0,1,1,0,0,0,1
483,Gabriela Cjumo Ata,8,1,0,0,0,1,1,1,0,1,0,0,0
484,Dean Yhilmar Cansaya Gutierrez,11,0,1,0,0,0,1,0,0,1,0,0,0
485,Luis Gustavo Yarin Manrique,10,1,0,0,0,0,0,0,0,0,0,1,0
486,Tristan Florez Caviedes,7,0,0,1,0,1,1,0,0,0,1,0,0
487,"VILLACORTA CJUIRO, Pedro",11,0,0,1,0,1,1,0,0,1,0,1,0
488,Claudia Quispe Huillca,9,0,1,0,1,0,1,0,1,0,0,0,1
489,Fiorela Villafuerte Yarin,12,0,0,1,0,0,1,0,0,1,0,0,0
490,Smith Steven Huaman Quispe,7,1,0,0,0,0,1,0,0,1,0,0,1
491,Raul Esteban Consa Ccorahua,9,0,1,0,0,0,0,0,0,1,0,1,0
492,"Loayza Yupanqui, Abel J.",7,0,0,1,0,1,1,1,1,0,1,1,1
493,Huamán Quispe David,9,0,0,1,0,0,1,1,0,0,1,0,0
494,Juan de la Cruz Claderon Pardo,6,1,0,0,0,1,0,1,0,0,1,0,1
495,Fredy Mormontoy Hancco,14,0,0,0,1,1,0,1,1,0,0,0,1
496,Yeferson Yapura Tumpay,11,1,0,0,0,0,1,0,0,1,1,0,0
497,Jose Claudio Ccorahua Benitez,6,1,0,0,0,0,0,0,1,1,0,1,0
498,Jose Luis Pezo Soto,12,1,0,0,0,1,1,1,0,1,1,0,1
499,"CALLAÑAUPA MAÑACCASA, Yharet Lauro",11,1,0,0,0,1,1,1,1,0,1,0,1
500,"cervantes Guevara, Richar",7,0,1,0,0,1,0,1,0,1,0,1,1
501,"HUALVERDE ONTON, LuCERO",12,0,1,0,0,0,0,0,0,1,0,1,0
502,Daniel Alcides Carrion Herrera,11,0,1,0,0,0,0,0,0,0,0,1,0
503,"Pañihuara Arana, Lisbeth Rocio",9,0,1,0,0,1,0,1,1,0,1,1,1
504,"Chullo Holguin, Luz Angela",11,1,0,0,0,1,0,0,0,1,0,1,1
505,"CUSIHUAMAN QUISPE, Luz fabiola",11,1,0,0,0,1,1,0,0,0,1,0,0
506,Callañaupa Ubalde Luis,7,1,0,0,0,1,0,0,0,1,0,0,1
507,Rutseli Prieto Quispe,10,1,0,0,0,0,1,0,0,1,1,0,0
508,Ana Lucero Ayrampo Guzman,9,1,0,0,0,0,0,0,0,0,0,1,0
509,Mayra Cristaly Torres Paredes,15,1,0,0,0,0,0,0,0,0,0,1,0
510,"Quisppe Huallpayunca, Franklin",7,1,0,0,0,0,0,1,0,1,0,1,1
511,"Huamán Ibarra, Angela",11,0,1,0,0,1,1,1,0,0,0,1,1
512,Melany fabiola Tapia Pariona,7,1,0,0,0,0,0,0,0,0,0,1,0
513,Aron Rodrigo Huamán M.,11,1,0,0,0,0,0,0,0,0,0,1,0
514,Mauricio Champi Aragon,9,0,0,1,0,1,0,1,1,0,1,0,1
515,José Alejandro Laurel Carrasco,7,1,0,0,0,0,0,0,0,0,0,1,0
516,"MAÑACCASA FRANCO, Shania Bridig",12,1,0,0,0,0,1,1,1,0,0,0,0
517,"HUAMAN INQUILTUPA, Lucio",12,1,0,0,0,1,1,1,1,0,1,0,1
518,kevin florez Farfan,11,1,0,0,0,0,0,0,0,0,0,1,0
519,Melvin Quispe Carrion,9,1,0,0,0,1,0,1,0,0,0,1,0
520,Luis Gabriel Pomarrosa Quispe,9,0,0,1,0,1,1,1,0,0,0,0,1
521,Fredy Mormontoy Hancco,14,0,0,0,1,1,0,1,1,0,0,0,1
522,Pezo Soto Maria Elena,8,1,0,0,0,1,1,0,0,0,0,0,0
523,Jose Alberto Suna Apaza,12,0,1,0,0,0,0,0,0,1,0,0,0
524,"Alfaro Huamán, Vilma",10,1,0,0,0,1,1,1,1,0,1,1,1
525,"CORONADO CONDORI, Arnol",12,0,1,0,0,0,0,1,1,0,1,0,0
526,"NINAHUILLCA SUPA,  Ruth Meri",11,1,0,0,0,1,1,1,0,0,0,1,0
527,Alonzo Chaiña Mamani,7,0,0,0,1,1,1,1,1,0,1,0,1
528,"Cusihuaman Quispe, alex F.",11,1,0,0,0,0,0,0,0,0,0,0,0
529,"Quispe Quispoe, Josue",11,1,0,0,0,1,0,0,0,0,0,0,0
530,"Quispe Quispe, Miriam",9,0,0,1,0,0,0,1,1,0,1,1,1
531,Yadiel. Enriquez Otazú,7,1,0,0,0,0,1,1,1,0,1,0,0
532,"FLORES VARGAS, Fiorela",11,0,0,0,1,0,1,1,0,1,0,1,0
533,Sumi Flores Alvarez,10,1,0,0,0,1,0,0,0,0,0,1,0
534,"Almanza Quispe, Bayron",7,0,0,0,1,1,0,1,0,1,0,0,1
535,Anderson Romero Huaman,12,0,0,1,0,1,1,0,0,1,1,0,0
536,Rodrigo Pichihua Moscoso,10,0,1,0,0,0,0,0,0,0,0,1,0
537,Marcela del Carmen Yarin M.,8,1,0,0,0,0,0,0,0,0,0,1,0
538,Marcos Julian Aguirre Manrique,9,0,1,0,0,0,1,1,0,0,0,1,0
539,"CORONEL CANCINES, Dulia",11,0,0,0,1,0,0,1,1,0,1,0,1
540,Maricelo Huamán Usca,7,1,0,0,0,0,0,0,0,0,0,1,0
541,Jeferson Jaime Ccala Romero,11,0,1,0,0,0,0,0,0,0,0,1,0
542,Anali Huaman Melo,9,1,0,0,0,0,0,0,0,1,0,1,0
543,Juan Diego Llave Challapa,8,1,0,0,0,0,0,0,0,1,0,1,0
544,Nicol Rios Meza,11,1,0,0,0,0,1,0,0,0,1,0,0
545,Nelly Quispe Gonzales,12,0,0,1,0,0,0,0,0,1,0,0,0
546,"Vivanco Quispe, Julio César",8,1,0,0,0,1,0,1,0,0,1,1,1
547,Belinda Ticona Rivas,9,1,0,0,0,0,0,0,0,1,0,1,0
548,Luis Fernando Bernal Bravo,8,0,1,0,0,0,0,0,1,0,1,0,0
549,"QUILLAHUAMAN HUAMAN, Jinmi",12,1,0,0,0,0,0,1,1,0,1,0,1
550,Juvenal Duran Escobedo,9,1,0,0,0,0,0,0,0,0,0,1,0
551,"GAVANCHO CAMERO, Michael",11,0,1,0,0,1,1,1,1,0,1,0,1
552,Luz Adriana Meza Saire,8,1,0,0,0,1,1,1,1,0,1,0,1
553,Eyvind Quispe Prieto,9,1,0,0,0,0,0,0,0,0,0,1,0
554,Kenyi Anyelo Guzman Quispe,9,0,1,0,0,0,0,0,1,0,0,0,0
555,"ZARABIA PARIGUNA, MARLENY",11,1,0,0,0,0,0,0,0,1,0,1,0
556,"YUPANQUI QUISPE, Yercy Gilmar",11,0,0,1,0,0,1,1,0,0,1,0,1
557,Gonzalo Callñaupa Cespedes,7,0,1,0,0,1,1,0,0,0,0,0,0
558,Gabriel M. Aquino Zamalloa,12,0,1,0,0,0,0,0,0,0,0,1,0
559,Franklin Quispe bautista,9,0,1,0,0,0,1,1,0,0,1,0,1
560,"PANTIGOSOSO SALLO, Ana",13,1,0,0,0,0,1,1,1,0,1,0,1
561,"SURCO MACHACA, Alexandra",11,1,0,0,0,1,0,0,1,0,1,0,1
562,Blanca Luz Abalos Benites,11,1,0,0,0,0,0,0,0,0,0,1,0
563,Mamani Mamani Hebert,10,1,0,0,0,1,1,1,0,0,1,0,1
564,,12,1,0,0,1,0,0,1,0,0,1,0,1
565,Kleisman Mozo Cusihuallpa,7,1,0,0,0,0,0,0,0,0,0,1,0
566,Yeni Ataulluco Ayma,6,1,0,0,0,1,0,1,0,1,0,0,1
567,Erick Yauri Quillahuaman,12,1,0,0,0,1,1,0,0,1,1,0,0
568,Mauricio Champi Aragon,9,0,0,1,0,1,0,1,1,0,1,0,1
569,Blanca Herrera Justiniani,6,1,0,0,0,0,0,0,0,1,0,1,0
570,YAPU AYME Hayder,11,1,0,0,0,1,1,0,0,1,0,1,0
571,"FRANCO CARRASCO, Luis Antonio",12,1,0,0,0,0,0,1,1,0,1,0,1
572,"Ccasa Huallpayunca, Maruja",12,1,0,0,0,0,0,1,0,1,0,0,1
573,Flor de Maria Ccasa Soto,9,0,1,0,1,1,1,1,1,0,1,0,1
574,Diego Gutierrez,7,1,0,0,0,0,0,0,0,0,0,1,0
575,"GIL FIGUEROA, Heidan Toribio",11,1,0,0,0,0,1,1,1,0,1,0,1
576,Josefina Prieto Quispe,8,0,0,0,1,1,1,0,1,0,1,0,1
577,Benjamin Angel Ccorahua Benitez,6,1,0,0,1,0,0,0,1,1,0,1,0
578,Yashiira Ormachea Paredes,10,1,0,0,0,0,0,0,0,0,0,1,0
579,Caballero Rivera Samuel Alexis,9,1,0,0,0,0,0,0,0,1,0,1,0
580,Sarita Callañaupa Ubalde,12,1,0,0,0,1,1,0,0,1,0,0,1
581,"HUALVERDE ONTON, LuCERO",12,0,1,0,0,0,0,0,0,1,0,1,0
582,Daniel Alcides Carrion Herrera,11,0,1,0,0,0,0,0,0,0,0,1,0
583,"Pañihuara Arana, Lisbeth Rocio",9,0,1,0,0,1,0,1,1,0,1,1,1
584,"Chullo Holguin, Luz Angela",11,1,0,0,0,1,0,0,0,1,0,1,1
585,"CUSIHUAMAN QUISPE, Luz fabiola",11,1,0,0,0,1,1,0,0,0,1,0,0
586,Callañaupa Ubalde Luis,7,1,0,0,0,1,0,0,0,1,0,0,1
587,Rutseli Prieto Quispe,10,1,0,0,0,0,1,0,0,1,1,0,0
588,Ana Lucero Ayrampo Guzman,9,1,0,0,0,0,0,0,0,0,0,1,0
589,Mayra Cristaly Torres Paredes,15,1,0,0,0,0,0,0,0,0,0,1,0
590,"Quisppe Huallpayunca, Franklin",7,1,0,0,0,0,0,1,0,1,0,1,1
591,"Huamán Ibarra, Angela",11,0,1,0,0,1,1,1,0,0,0,1,1
592,Melany fabiola Tapia Pariona,7,1,0,0,0,0,0,0,0,0,0,1,0
593,Aron Rodrigo Huamán M.,11,1,0,0,0,0,0,0,0,0,0,1,0
594,Mauricio Champi Aragon,9,0,0,1,0,1,0,1,1,0,1,0,1
595,José Alejandro Laurel Carrasco,7,1,0,0,0,0,0,0,0,0,0,1,0
596,"MAÑACCASA FRANCO, Shania Bridig",12,1,0,0,0,0,1,1,1,0,0,0,0
597,"HUAMAN INQUILTUPA, Lucio",12,1,0,0,0,1,1,1,1,0,1,0,1
598,kevin florez Farfan,11,1,0,0,0,0,0,0,0,0,0,1,0
599,Melvin Quispe Carrion,9,1,0,0,0,1,0,1,0,0,0,1,0
600,Luis Gabriel Pomarrosa Quispe,9,0,0,1,0,1,1,1,0,0,0,0,1
601,Miguel A. Yauri Quillahuaman,10,1,0,0,0,0,1,0,0,0,1,0,0
602,Gabriel Ccoata Quispe,10,1,0,0,0,1,0,1,1,0,0,0,1
603,Gabriela Cjumo Ata,8,1,0,0,0,1,1,1,0,1,0,0,0
604,Dean Yhilmar Cansaya Gutierrez,11,0,1,0,0,0,1,0,0,1,0,0,0
605,Luis Gustavo Yarin Manrique,10,1,0,0,0,0,0,0,0,0,0,1,0
606,Tristan Florez Caviedes,7,0,0,1,0,1,1,0,0,0,1,0,0
607,"VILLACORTA CJUIRO, Pedro",11,0,0,1,0,1,1,0,0,1,0,1,0
608,Claudia Quispe Huillca,9,0,1,0,1,0,1,0,1,0,0,0,1
609,Fiorela Villafuerte Yarin,12,0,0,1,0,0,1,0,0,1,0,0,0
610,Smith Steven Huaman Quispe,7,1,0,0,0,0,1,0,0,1,0,0,1
611,Raul Esteban Consa Ccorahua,9,0,1,0,0,0,0,0,0,1,0,1,0
612,"Loayza Yupanqui, Abel J.",7,0,0,1,0,1,1,1,1,0,1,1,1
613,Huamán Quispe David,9,0,0,1,0,0,1,1,0,0,1,0,0
614,Juan de la Cruz Claderon Pardo,6,1,0,0,0,1,0,1,0,0,1,0,1
615,Fredy Mormontoy Hancco,14,0,0,0,1,1,0,1,1,0,0,0,1
616,Yeferson Yapura Tumpay,11,1,0,0,0,0,1,0,0,1,1,0,0
617,Jose Claudio Ccorahua Benitez,6,1,0,0,0,0,0,0,1,1,0,1,0
618,Jose Luis Pezo Soto,12,1,0,0,0,1,1,1,0,1,1,0,1
619,"CALLAÑAUPA MAÑACCASA, Yharet Lauro",11,1,0,0,0,1,1,1,1,0,1,0,1
620,"cervantes Guevara, Richar",7,0,1,0,0,1,0,1,0,1,0,1,1
621,"SURCO MACHACA, Alexandra",11,1,0,0,0,1,0,0,1,0,1,0,1
622,Blanca Luz Abalos Benites,11,1,0,0,0,0,0,0,0,0,0,1,0
623,Mamani Mamani Hebert,10,1,0,0,0,1,1,1,0,0,1,0,1
624,,12,1,0,0,1,0,0,1,0,0,1,0,1
625,Kleisman Mozo Cusihuallpa,7,1,0,0,0,0,0,0,0,0,0,1,0
626,Yeni Ataulluco Ayma,6,1,0,0,0,1,0,1,0,1,0,0,1
627,Erick Yauri Quillahuaman,12,1,0,0,0,1,1,0,0,1,1,0,0
628,Mauricio Champi Aragon,9,0,0,1,0,1,0,1,1,0,1,0,1
629,Blanca Herrera Justiniani,6,1,0,0,0,0,0,0,0,1,0,1,0
630,YAPU AYME Hayder,11,1,0,0,0,1,1,0,0,1,0,1,0
631,"FRANCO CARRASCO, Luis Antonio",12,1,0,0,0,0,0,1,1,0,1,0,1
632,"Ccasa Huallpayunca, Maruja",12,1,0,0,0,0,0,1,0,1,0,0,1
633,Flor de Maria Ccasa Soto,9,0,1,0,1,1,1,1,1,0,1,0,1
634,Diego Gutierrez,7,1,0,0,0,0,0,0,0,0,0,1,0
635,"GIL FIGUEROA, Heidan Toribio",11,1,0,0,0,0,1,1,1,0,1,0,1
636,Josefina Prieto Quispe,8,0,0,0,1,1,1,0,1,0,1,0,1
637,Benjamin Angel Ccorahua Benitez,6,1,0,0,1,0,0,0,1,1,0,1,0
638,Yashiira Ormachea Paredes,10,1,0,0,0,0,0,0,0,0,0,1,0
639,Caballero Rivera Samuel Alexis,9,1,0,0,0,0,0,0,0,1,0,1,0
640,Sarita Callañaupa Ubalde,12,1,0,0,0,1,1,0,0,1,0,0,1
641,Fredy Mormontoy Hancco,14,0,0,0,1,1,0,1,1,0,0,0,1
642,Pezo Soto Maria Elena,8,1,0,0,0,1,1,0,0,0,0,0,0
643,Jose Alberto Suna Apaza,12,0,1,0,0,0,0,0,0,1,0,0,0
644,"Alfaro Huamán, Vilma",10,1,0,0,0,1,1,1,1,0,1,1,1
645,"CORONADO CONDORI, Arnol",12,0,1,0,0,0,0,1,1,0,1,0,0
646,"NINAHUILLCA SUPA,  Ruth Meri",11,1,0,0,0,1,1,1,0,0,0,1,0
647,Alonzo Chaiña Mamani,7,0,0,0,1,1,1,1,1,0,1,0,1
648,"Cusihuaman Quispe, alex F.",11,1,0,0,0,0,0,0,0,0,0,0,0
649,"Quispe Quispoe, Josue",11,1,0,0,0,1,0,0,0,0,0,0,0
650,"Quispe Quispe, Miriam",9,0,0,1,0,0,0,1,1,0,1,1,1
651,Yadiel. Enriquez Otazú,7,1,0,0,0,0,1,1,1,0,1,0,0
652,"FLORES VARGAS, Fiorela",11,0,0,0,1,0,1,1,0,1,0,1,0
653,Sumi Flores Alvarez,10,1,0,0,0,1,0,0,0,0,0,1,0
654,"Almanza Quispe, Bayron",7,0,0,0,1,1,0,1,0,1,0,0,1
655,Anderson Romero Huaman,12,0,0,1,0,1,1,0,0,1,1,0,0
656,Rodrigo Pichihua Moscoso,10,0,1,0,0,0,0,0,0,0,0,1,0
657,Marcela del Carmen Yarin M.,8,1,0,0,0,0,0,0,0,0,0,1,0
658,Marcos Julian Aguirre Manrique,9,0,1,0,0,0,1,1,0,0,0,1,0
659,"CORONEL CANCINES, Dulia",11,0,0,0,1,0,0,1,1,0,1,0,1
660,Maricelo Huamán Usca,7,1,0,0,0,0,0,0,0,0,0,1,0
661,Jeferson Jaime Ccala Romero,11,0,1,0,0,0,0,0,0,0,0,1,0
662,Anali Huaman Melo,9,1,0,0,0,0,0,0,0,1,0,1,0
663,Juan Diego Llave Challapa,8,1,0,0,0,0,0,0,0,1,0,1,0
664,Nicol Rios Meza,11,1,0,0,0,0,1,0,0,0,1,0,0
665,Nelly Quispe Gonzales,12,0,0,1,0,0,0,0,0,1,0,0,0
666,"Vivanco Quispe, Julio César",8,1,0,0,0,1,0,1,0,0,1,1,1
667,Belinda Ticona Rivas,9,1,0,0,0,0,0,0,0,1,0,1,0
668,Luis Fernando Bernal Bravo,8,0,1,0,0,0,0,0,1,0,1,0,0
669,"QUILLAHUAMAN HUAMAN, Jinmi",12,1,0,0,0,0,0,1,1,0,1,0,1
670,Juvenal Duran Escobedo,9,1,0,0,0,0,0,0,0,0,0,1,0
671,"GAVANCHO CAMERO, Michael",11,0,1,0,0,1,1,1,1,0,1,0,1
672,Luz Adriana Meza Saire,8,1,0,0,0,1,1,1,1,0,1,0,1
673,Eyvind Quispe Prieto,9,1,0,0,0,0,0,0,0,0,0,1,0
674,Kenyi Anyelo Guzman Quispe,9,0,1,0,0,0,0,0,1,0,0,0,0
675,"ZARABIA PARIGUNA, MARLENY",11,1,0,0,0,0,0,0,0,1,0,1,0
676,"YUPANQUI QUISPE, Yercy Gilmar",11,0,0,1,0,0,1,1,0,0,1,0,1
677,Gonzalo Callñaupa Cespedes,7,0,1,0,0,1,1,0,0,0,0,0,0
678,Gabriel M. Aquino Zamalloa,12,0,1,0,0,0,0,0,0,0,0,1,0
679,Franklin Quispe bautista,9,0,1,0,0,0,1,1,0,0,1,0,1
680,"PANTIGOSOSO SALLO, Ana",13,1,0,0,0,0,1,1,1,0,1,0,1
681,Fredy Mormontoy Hancco,14,0,0,0,1,1,0,1,1,0,0,0,1
682,Pezo Soto Maria Elena,8,1,0,0,0,1,1,0,0,0,0,0,0
683,Jose Alberto Suna Apaza,12,0,1,0,0,0,0,0,0,1,0,0,0
684,"Alfaro Huamán, Vilma",10,1,0,0,0,1,1,1,1,0,1,1,1
685,"CORONADO CONDORI, Arnol",12,0,1,0,0,0,0,1,1,0,1,0,0
686,"NINAHUILLCA SUPA,  Ruth Meri",11,1,0,0,0,1,1,1,0,0,0,1,0
687,Alonzo Chaiña Mamani,7,0,0,0,1,1,1,1,1,0,1,0,1
688,"Cusihuaman Quispe, alex F.",11,1,0,0,0,0,0,0,0,0,0,0,0
689,"Quispe Quispoe, Josue",11,1,0,0,0,1,0,0,0,0,0,0,0
690,"Quispe Quispe, Miriam",9,0,0,1,0,0,0,1,1,0,1,1,1
691,Yadiel. Enriquez Otazú,7,1,0,0,0,0,1,1,1,0,1,0,0
692,"FLORES VARGAS, Fiorela",11,0,0,0,1,0,1,1,0,1,0,1,0
693,Sumi Flores Alvarez,10,1,0,0,0,1,0,0,0,0,0,1,0
694,"Almanza Quispe, Bayron",7,0,0,0,1,1,0,1,0,1,0,0,1
695,Anderson Romero Huaman,12,0,0,1,0,1,1,0,0,1,1,0,0
696,Rodrigo Pichihua Moscoso,10,0,1,0,0,0,0,0,0,0,0,1,0
697,Marcela del Carmen Yarin M.,8,1,0,0,0,0,0,0,0,0,0,1,0
698,Marcos Julian Aguirre Manrique,9,0,1,0,0,0,1,1,0,0,0,1,0
699,"CORONEL CANCINES, Dulia",11,0,0,0,1,0,0,1,1,0,1,0,1
700,Maricelo Huamán Usca,7,1,0,0,0,0,0,0,0,0,0,1,0
701,Jeferson Jaime Ccala Romero,11,0,1,0,0,0,0,0,0,0,0,1,0
702,Anali Huaman Melo,9,1,0,0,0,0,0,0,0,1,0,1,0
703,Juan Diego Llave Challapa,8,1,0,0,0,0,0,0,0,1,0,1,0
704,Nicol Rios Meza,11,1,0,0,0,0,1,0,0,0,1,0,0
705,Nelly Quispe Gonzales,12,0,0,1,0,0,0,0,0,1,0,0,0
706,"Vivanco Quispe, Julio César",8,1,0,0,0,1,0,1,0,0,1,1,1
707,Belinda Ticona Rivas,9,1,0,0,0,0,0,0,0,1,0,1,0
708,Luis Fernando Bernal Bravo,8,0,1,0,0,0,0,0,1,0,1,0,0
709,"QUILLAHUAMAN HUAMAN, Jinmi",12,1,0,0,0,0,0,1,1,0,1,0,1
710,Juvenal Duran Escobedo,9,1,0,0,0,0,0,0,0,0,0,1,0
711,"GAVANCHO CAMERO, Michael",11,0,1,0,0,1,1,1,1,0,1,0,1
712,Luz Adriana Meza Saire,8,1,0,0,0,1,1,1,1,0,1,0,1
713,Eyvind Quispe Prieto,9,1,0,0,0,0,0,0,0,0,0,1,0
714,Kenyi Anyelo Guzman Quispe,9,0,1,0,0,0,0,0,1,0,0,0,0
715,"ZARABIA PARIGUNA, MARLENY",11,1,0,0,0,0,0,0,0,1,0,1,0
716,"YUPANQUI QUISPE, Yercy Gilmar",11,0,0,1,0,0,1,1,0,0,1,0,1
717,Gonzalo Callñaupa Cespedes,7,0,1,0,0,1,1,0,0,0,0,0,0
718,Gabriel M. Aquino Zamalloa,12,0,1,0,0,0,0,0,0,0,0,1,0
719,Franklin Quispe bautista,9,0,1,0,0,0,1,1,0,0,1,0,1
720,"PANTIGOSOSO SALLO, Ana",13,1,0,0,0,0,1,1,1,0,1,0,1
721,Miguel A. Yauri Quillahuaman,10,1,0,0,0,0,1,0,0,0,1,0,0
722,Gabriel Ccoata Quispe,10,1,0,0,0,1,0,1,1,0,0,0,1
723,Gabriela Cjumo Ata,8,1,0,0,0,1,1,1,0,1,0,0,0
724,Dean Yhilmar Cansaya Gutierrez,11,0,1,0,0,0,1,0,0,1,0,0,0
725,Luis Gustavo Yarin Manrique,10,1,0,0,0,0,0,0,0,0,0,1,0
726,Tristan Florez Caviedes,7,0,0,1,0,1,1,0,0,0,1,0,0
727,"VILLACORTA CJUIRO, Pedro",11,0,0,1,0,1,1,0,0,1,0,1,0
728,Claudia Quispe Huillca,9,0,1,0,1,0,1,0,1,0,0,0,1
729,Fiorela Villafuerte Yarin,12,0,0,1,0,0,1,0,0,1,0,0,0
730,Smith Steven Huaman Quispe,7,1,0,0,0,0,1,0,0,1,0,0,1
731,Raul Esteban Consa Ccorahua,9,0,1,0,0,0,0,0,0,1,0,1,0
732,"Loayza Yupanqui, Abel J.",7,0,0,1,0,1,1,1,1,0,1,1,1
733,Huamán Quispe David,9,0,0,1,0,0,1,1,0,0,1,0,0
734,Juan de la Cruz Claderon Pardo,6,1,0,0,0,1,0,1,0,0,1,0,1
735,Fredy Mormontoy Hancco,14,0,0,0,1,1,0,1,1,0,0,0,1
736,Yeferson Yapura Tumpay,11,1,0,0,0,0,1,0,0,1,1,0,0
737,Jose Claudio Ccorahua Benitez,6,1,0,0,0,0,0,0,1,1,0,1,0
738,Jose Luis Pezo Soto,12,1,0,0,0,1,1,1,0,1,1,0,1
739,"CALLAÑAUPA MAÑACCASA, Yharet Lauro",11,1,0,0,0,1,1,1,1,0,1,0,1
740,"cervantes Guevara, Richar",7,0,1,0,0,1,0,1,0,1,0,1,1
741,"HUALVERDE ONTON, LuCERO",12,0,1,0,0,0,0,0,0,1,0,1,0
742,Daniel Alcides Carrion Herrera,11,0,1,0,0,0,0,0,0,0,0,1,0
743,"Pañihuara Arana, Lisbeth Rocio",9,0,1,0,0,1,0,1,1,0,1,1,1
744,"Chullo Holguin, Luz Angela",11,1,0,0,0,1,0,0,0,1,0,1,1
745,"CUSIHUAMAN QUISPE, Luz fabiola",11,1,0,0,0,1,1,0,0,0,1,0,0
746,Callañaupa Ubalde Luis,7,1,0,0,0,1,0,0,0,1,0,0,1
747,Rutseli Prieto Quispe,10,1,0,0,0,0,1,0,0,1,1,0,0
748,Ana Lucero Ayrampo Guzman,9,1,0,0,0,0,0,0,0,0,0,1,0
749,Mayra Cristaly Torres Paredes,15,1,0,0,0,0,0,0,0,0,0,1,0
750,"Quisppe Huallpayunca, Franklin",7,1,0,0,0,0,0,1,0,1,0,1,1
751,"Huamán Ibarra, Angela",11,0,1,0,0,1,1,1,0,0,0,1,1
752,Melany fabiola Tapia Pariona,7,1,0,0,0,0,0,0,0,0,0,1,0
753,Aron Rodrigo Huamán M.,11,1,0,0,0,0,0,0,0,0,0,1,0
754,Mauricio Champi Aragon,9,0,0,1,0,1,0,1,1,0,1,0,1
755,José Alejandro Laurel Carrasco,7,1,0,0,0,0,0,0,0,0,0,1,0
756,"MAÑACCASA FRANCO, Shania Bridig",12,1,0,0,0,0,1,1,1,0,0,0,0
757,"HUAMAN INQUILTUPA, Lucio",12,1,0,0,0,1,1,1,1,0,1,0,1
758,kevin florez Farfan,11,1,0,0,0,0,0,0,0,0,0,1,0
759,Melvin Quispe Carrion,9,1,0,0,0,1,0,1,0,0,0,1,0
760,Luis Gabriel Pomarrosa Quispe,9,0,0,1,0,1,1,1,0,0,0,0,1
761,Fredy Mormontoy Hancco,14,0,0,0,1,1,0,1,1,0,0,0,1
762,Pezo Soto Maria Elena,8,1,0,0,0,1,1,0,0,0,0,0,0
763,Jose Alberto Suna Apaza,12,0,1,0,0,0,0,0,0,1,0,0,0
764,"Alfaro Huamán, Vilma",10,1,0,0,0,1,1,1,1,0,1,1,1
765,"CORONADO CONDORI, Arnol",12,0,1,0,0,0,0,1,1,0,1,0,0
766,"NINAHUILLCA SUPA,  Ruth Meri",11,1,0,0,0,1,1,1,0,0,0,1,0
767,Alonzo Chaiña Mamani,7,0,0,0,1,1,1,1,1,0,1,0,1
768,"Cusihuaman Quispe, alex F.",11,1,0,0,0,0,0,0,0,0,0,0,0
769,"Quispe Quispoe, Josue",11,1,0,0,0,1,0,0,0,0,0,0,0
770,"Quispe Quispe, Miriam",9,0,0,1,0,0,0,1,1,0,1,1,1
771,Yadiel. Enriquez Otazú,7,1,0,0,0,0,1,1,1,0,1,0,0
772,"FLORES VARGAS, Fiorela",11,0,0,0,1,0,1,1,0,1,0,1,0
773,Sumi Flores Alvarez,10,1,0,0,0,1,0,0,0,0,0,1,0
774,"Almanza Quispe, Bayron",7,0,0,0,1,1,0,1,0,1,0,0,1
775,Anderson Romero Huaman,12,0,0,1,0,1,1,0,0,1,1,0,0
776,Rodrigo Pichihua Moscoso,10,0,1,0,0,0,0,0,0,0,0,1,0
777,Marcela del Carmen Yarin M.,8,1,0,0,0,0,0,0,0,0,0,1,0
778,Marcos Julian Aguirre Manrique,9,0,1,0,0,0,1,1,0,0,0,1,0
779,"CORONEL CANCINES, Dulia",11,0,0,0,1,0,0,1,1,0,1,0,1
780,Maricelo Huamán Usca,7,1,0,0,0,0,0,0,0,0,0,1,0
781,Jeferson Jaime Ccala Romero,11,0,1,0,0,0,0,0,0,0,0,1,0
782,Anali Huaman Melo,9,1,0,0,0,0,0,0,0,1,0,1,0
783,Juan Diego Llave Challapa,8,1,0,0,0,0,0,0,0,1,0,1,0
784,Nicol Rios Meza,11,1,0,0,0,0,1,0,0,0,1,0,0
785,Nelly Quispe Gonzales,12,0,0,1,0,0,0,0,0,1,0,0,0
786,"Vivanco Quispe, Julio César",8,1,0,0,0,1,0,1,0,0,1,1,1
787,Belinda Ticona Rivas,9,1,0,0,0,0,0,0,0,1,0,1,0
788,Luis Fernando Bernal Bravo,8,0,1,0,0,0,0,0,1,0,1,0,0
789,"QUILLAHUAMAN HUAMAN, Jinmi",12,1,0,0,0,0,0,1,1,0,1,0,1
790,Juvenal Duran Escobedo,9,1,0,0,0,0,0,0,0,0,0,1,0
791,"GAVANCHO CAMERO, Michael",11,0,1,0,0,1,1,1,1,0,1,0,1
792,Luz Adriana Meza Saire,8,1,0,0,0,1,1,1,1,0,1,0,1
793,Eyvind Quispe Prieto,9,1,0,0,0,0,0,0,0,0,0,1,0
794,Kenyi Anyelo Guzman Quispe,9,0,1,0,0,0,0,0,1,0,0,0,0
795,"ZARABIA PARIGUNA, MARLENY",11,1,0,0,0,0,0,0,0,1,0,1,0
796,"YUPANQUI QUISPE, Yercy Gilmar",11,0,0,1,0,0,1,1,0,0,1,0,1
797,Gonzalo Callñaupa Cespedes,7,0,1,0,0,1,1,0,0,0,0,0,0
798,Gabriel M. Aquino Zamalloa,12,0,1,0,0,0,0,0,0,0,0,1,0
799,Franklin Quispe bautista,9,0,1,0,0,0,1,1,0,0,1,0,1
800,Alonzo Chaiña Mamani,7,0,0,0,1,1,1,1,1,0,1,0,1
801,Nayda Meza Quispe,6,1,0,0,0,0,0,0,0,0,0,1,0
802,Sherjhy Vidal Ferro Toledo,10,0,1,0,0,0,0,0,0,0,0,1,0
803,Yulissa Vanessa Huamani Paccori,11,1,0,0,0,0,0,0,0,0,0,1,0
804,Luis Antony Amao Paredes,9,1,0,0,0,0,0,0,0,1,0,1,0
805,Natan Ernesto Aquino Choquehuillca,6,1,0,0,0,0,0,0,0,1,0,1,0
806,"LETONA CUSIHUAMAN, Magaly",12,0,0,0,1,1,0,1,0,1,0,1,0
807,"ARANZABAL HUAMAN, Jhosep",11,0,0,0,1,0,0,1,0,1,0,1,0
808,Richar Zamata Gamarra,12,0,0,0,1,1,1,1,0,1,1,0,1
809,Medaly Pastor Villavicencio,10,0,1,0,0,0,0,0,0,0,0,1,0
810,"INQUILTUPA CHOQUIHUAYTA, Yosmar",13,0,0,1,0,1,0,1,0,0,1,0,1
811,"CALLAÑAUPA JUAREZ, Ramiro",12,0,1,0,0,1,0,1,1,0,1,0,1
812,"CRUZ ZULUAGA, Anani",11,0,0,0,1,0,1,0,0,1,0,1,0
813,Jonathan Smith Bejar Quispe,12,0,1,0,0,0,1,0,0,0,0,1,0
814,Markus Edú Ccoyori Baños,8,1,0,0,0,0,0,0,0,0,0,1,0
815,LUNA BACA Yasmina,11,1,0,0,0,1,0,1,0,0,1,0,1
816,"SICOS YLLA, Efrain",12,0,0,1,0,1,0,1,1,0,1,0,1
817,"Quispillo Villalobos, Franklin H.",9,1,0,0,0,1,0,1,1,0,1,1,1
818,"SILVA CASTILLO, Nancy",13,0,1,0,0,0,1,0,1,0,1,0,1
819,Joel Alexis Jimenez Alosilla,9,1,0,0,0,0,1,0,0,0,0,1,0
820,Alonzo Chaiña Mamani,7,0,0,0,1,1,1,1,1,0,1,0,1
821,Nayda Meza Quispe,6,1,0,0,0,0,0,0,0,0,0,1,0
822,Sherjhy Vidal Ferro Toledo,10,0,1,0,0,0,0,0,0,0,0,1,0
823,Yulissa Vanessa Huamani Paccori,11,1,0,0,0,0,0,0,0,0,0,1,0
824,Luis Antony Amao Paredes,9,1,0,0,0,0,0,0,0,1,0,1,0
825,Natan Ernesto Aquino Choquehuillca,6,1,0,0,0,0,0,0,0,1,0,1,0
826,"LETONA CUSIHUAMAN, Magaly",12,0,0,0,1,1,0,1,0,1,0,1,0
827,"ARANZABAL HUAMAN, Jhosep",11,0,0,0,1,0,0,1,0,1,0,1,0
828,Richar Zamata Gamarra,12,0,0,0,1,1,1,1,0,1,1,0,1
829,Medaly Pastor Villavicencio,10,0,1,0,0,0,0,0,0,0,0,1,0
830,"INQUILTUPA CHOQUIHUAYTA, Yosmar",13,0,0,1,0,1,0,1,0,0,1,0,1
831,"CALLAÑAUPA JUAREZ, Ramiro",12,0,1,0,0,1,0,1,1,0,1,0,1
832,"CRUZ ZULUAGA, Anani",11,0,0,0,1,0,1,0,0,1,0,1,0
833,Jonathan Smith Bejar Quispe,12,0,1,0,0,0,1,0,0,0,0,1,0
834,Markus Edú Ccoyori Baños,8,1,0,0,0,0,0,0,0,0,0,1,0
835,LUNA BACA Yasmina,11,1,0,0,0,1,0,1,0,0,1,0,1
836,"SICOS YLLA, Efrain",12,0,0,1,0,1,0,1,1,0,1,0,1
837,"Quispillo Villalobos, Franklin H.",9,1,0,0,0,1,0,1,1,0,1,1,1
838,"SILVA CASTILLO, Nancy",13,0,1,0,0,0,1,0,1,0,1,0,1
839,Joel Alexis Jimenez Alosilla,9,1,0,0,0,0,1,0,0,0,0,1,0
840,Alonzo Chaiña Mamani,7,0,0,0,1,1,1,1,1,0,1,0,1
841,Nayda Meza Quispe,6,1,0,0,0,0,0,0,0,0,0,1,0
842,Sherjhy Vidal Ferro Toledo,10,0,1,0,0,0,0,0,0,0,0,1,0
843,Yulissa Vanessa Huamani Paccori,11,1,0,0,0,0,0,0,0,0,0,1,0
844,Luis Antony Amao Paredes,9,1,0,0,0,0,0,0,0,1,0,1,0
845,Natan Ernesto Aquino Choquehuillca,6,1,0,0,0,0,0,0,0,1,0,1,0
846,"LETONA CUSIHUAMAN, Magaly",12,0,0,0,1,1,0,1,0,1,0,1,0
847,"ARANZABAL HUAMAN, Jhosep",11,0,0,0,1,0,0,1,0,1,0,1,0
848,Richar Zamata Gamarra,12,0,0,0,1,1,1,1,0,1,1,0,1
849,Medaly Pastor Villavicencio,10,0,1,0,0,0,0,0,0,0,0,1,0
850,"INQUILTUPA CHOQUIHUAYTA, Yosmar",13,0,0,1,0,1,0,1,0,0,1,0,1
851,"CALLAÑAUPA JUAREZ, Ramiro",12,0,1,0,0,1,0,1,1,0,1,0,1
852,"CRUZ ZULUAGA, Anani",11,0,0,0,1,0,1,0,0,1,0,1,0
853,Jonathan Smith Bejar Quispe,12,0,1,0,0,0,1,0,0,0,0,1,0
854,Markus Edú Ccoyori Baños,8,1,0,0,0,0,0,0,0,0,0,1,0
855,LUNA BACA Yasmina,11,1,0,0,0,1,0,1,0,0,1,0,1
856,"SICOS YLLA, Efrain",12,0,0,1,0,1,0,1,1,0,1,0,1
857,"Quispillo Villalobos, Franklin H.",9,1,0,0,0,1,0,1,1,0,1,1,1
858,"SILVA CASTILLO, Nancy",13,0,1,0,0,0,1,0,1,0,1,0,1
859,Joel Alexis Jimenez Alosilla,9,1,0,0,0,0,1,0,0,0,0,1,0
860,Alonzo Chaiña Mamani,7,0,0,0,1,1,1,1,1,0,1,0,1
861,Nayda Meza Quispe,6,1,0,0,0,0,0,0,0,0,0,1,0
862,Sherjhy Vidal Ferro Toledo,10,0,1,0,0,0,0,0,0,0,0,1,0
863,Yulissa Vanessa Huamani Paccori,11,1,0,0,0,0,0,0,0,0,0,1,0
864,Luis Antony Amao Paredes,9,1,0,0,0,0,0,0,0,1,0,1,0
865,Natan Ernesto Aquino Choquehuillca,6,1,0,0,0,0,0,0,0,1,0,1,0
866,"LETONA CUSIHUAMAN, Magaly",12,0,0,0,1,1,0,1,0,1,0,1,0
867,"ARANZABAL HUAMAN, Jhosep",11,0,0,0,1,0,0,1,0,1,0,1,0
868,Richar Zamata Gamarra,12,0,0,0,1,1,1,1,0,1,1,0,1
869,Medaly Pastor Villavicencio,10,0,1,0,0,0,0,0,0,0,0,1,0
870,"INQUILTUPA CHOQUIHUAYTA, Yosmar",13,0,0,1,0,1,0,1,0,0,1,0,1
871,"CALLAÑAUPA JUAREZ, Ramiro",12,0,1,0,0,1,0,1,1,0,1,0,1
872,"CRUZ ZULUAGA, Anani",11,0,0,0,1,0,1,0,0,1,0,1,0
873,Jonathan Smith Bejar Quispe,12,0,1,0,0,0,1,0,0,0,0,1,0
874,Markus Edú Ccoyori Baños,8,1,0,0,0,0,0,0,0,0,0,1,0
875,LUNA BACA Yasmina,11,1,0,0,0,1,0,1,0,0,1,0,1
876,"SICOS YLLA, Efrain",12,0,0,1,0,1,0,1,1,0,1,0,1
877,"Quispillo Villalobos, Franklin H.",9,1,0,0,0,1,0,1,1,0,1,1,1
878,"SILVA CASTILLO, Nancy",13,0,1,0,0,0,1,0,1,0,1,0,1
879,Joel Alexis Jimenez Alosilla,9,1,0,0,0,0,1,0,0,0,0,1,0
880,Joel Alexis Jimenez Alosilla,9,1,0,0,0,0,1,0,0,0,0,1,0
881,Alonzo Chaiña Mamani,7,0,0,0,1,1,1,1,1,0,1,0,1
882,Nayda Meza Quispe,6,1,0,0,0,0,0,0,0,0,0,1,0
883,Sherjhy Vidal Ferro Toledo,10,0,1,0,0,0,0,0,0,0,0,1,0
884,Yulissa Vanessa Huamani Paccori,11,1,0,0,0,0,0,0,0,0,0,1,0
885,Luis Antony Amao Paredes,9,1,0,0,0,0,0,0,0,1,0,1,0
886,Natan Ernesto Aquino Choquehuillca,6,1,0,0,0,0,0,0,0,1,0,1,0
887,"LETONA CUSIHUAMAN, Magaly",12,0,0,0,1,1,0,1,0,1,0,1,0
888,"ARANZABAL HUAMAN, Jhosep",11,0,0,0,1,0,0,1,0,1,0,1,0
889,Richar Zamata Gamarra,12,0,0,0,1,1,1,1,0,1,1,0,1
890,Medaly Pastor Villavicencio,10,0,1,0,0,0,0,0,0,0,0,1,0
891,"INQUILTUPA CHOQUIHUAYTA, Yosmar",13,0,0,1,0,1,0,1,0,0,1,0,1
892,"CALLAÑAUPA JUAREZ, Ramiro",12,0,1,0,0,1,0,1,1,0,1,0,1
893,"CRUZ ZULUAGA, Anani",11,0,0,0,1,0,1,0,0,1,0,1,0
894,Jonathan Smith Bejar Quispe,12,0,1,0,0,0,1,0,0,0,0,1,0
895,Markus Edú Ccoyori Baños,8,1,0,0,0,0,0,0,0,0,0,1,0
896,LUNA BACA Yasmina,11,1,0,0,0,1,0,1,0,0,1,0,1
897,"SICOS YLLA, Efrain",12,0,0,1,0,1,0,1,1,0,1,0,1
898,"Quispillo Villalobos, Franklin H.",9,1,0,0,0,1,0,1,1,0,1,1,1
899,"SILVA CASTILLO, Nancy",13,0,1,0,0,0,1,0,1,0,1,0,1
900,Joel Alexis Jimenez Alosilla,9,1,0,0,0,0,1,0,0,0,0,1,0
901,Alonzo Chaiña Mamani,7,0,0,0,1,1,1,1,1,0,1,0,1
902,Nayda Meza Quispe,6,1,0,0,0,0,0,0,0,0,0,1,0
903,Sherjhy Vidal Ferro Toledo,10,0,1,0,0,0,0,0,0,0,0,1,0
904,Yulissa Vanessa Huamani Paccori,11,1,0,0,0,0,0,0,0,0,0,1,0
905,Luis Antony Amao Paredes,9,1,0,0,0,0,0,0,0,1,0,1,0
906,Natan Ernesto Aquino Choquehuillca,6,1,0,0,0,0,0,0,0,1,0,1,0
907,"LETONA CUSIHUAMAN, Magaly",12,0,0,0,1,1,0,1,0,1,0,1,0
908,"ARANZABAL HUAMAN, Jhosep",11,0,0,0,1,0,0,1,0,1,0,1,0
909,Richar Zamata Gamarra,12,0,0,0,1,1,1,1,0,1,1,0,1
910,Medaly Pastor Villavicencio,10,0,1,0,0,0,0,0,0,0,0,1,0
911,"INQUILTUPA CHOQUIHUAYTA, Yosmar",13,0,0,1,0,1,0,1,0,0,1,0,1
912,"CALLAÑAUPA JUAREZ, Ramiro",12,0,1,0,0,1,0,1,1,0,1,0,1
913,"CRUZ ZULUAGA, Anani",11,0,0,0,1,0,1,0,0,1,0,1,0
914,Jonathan Smith Bejar Quispe,12,0,1,0,0,0,1,0,0,0,0,1,0
915,Markus Edú Ccoyori Baños,8,1,0,0,0,0,0,0,0,0,0,1,0
916,LUNA BACA Yasmina,11,1,0,0,0,1,0,1,0,0,1,0,1
917,"SICOS YLLA, Efrain",12,0,0,1,0,1,0,1,1,0,1,0,1
918,"Quispillo Villalobos, Franklin H.",9,1,0,0,0,1,0,1,1,0,1,1,1
919,"SILVA CASTILLO, Nancy",13,0,1,0,0,0,1,0,1,0,1,0,1
920,Joel Alexis Jimenez Alosilla,9,1,0,0,0,0,1,0,0,0,0,1,0
921,Alonzo Chaiña Mamani,7,0,0,0,1,1,1,1,1,0,1,0,1
922,Nayda Meza Quispe,6,1,0,0,0,0,0,0,0,0,0,1,0
923,Sherjhy Vidal Ferro Toledo,10,0,1,0,0,0,0,0,0,0,0,1,0
924,Yulissa Vanessa Huamani Paccori,11,1,0,0,0,0,0,0,0,0,0,1,0
925,Luis Antony Amao Paredes,9,1,0,0,0,0,0,0,0,1,0,1,0
926,Natan Ernesto Aquino Choquehuillca,6,1,0,0,0,0,0,0,0,1,0,1,0
927,"LETONA CUSIHUAMAN, Magaly",12,0,0,0,1,1,0,1,0,1,0,1,0
928,"ARANZABAL HUAMAN, Jhosep",11,0,0,0,1,0,0,1,0,1,0,1,0
929,Richar Zamata Gamarra,12,0,0,0,1,1,1,1,0,1,1,0,1
930,Medaly Pastor Villavicencio,10,0,1,0,0,0,0,0,0,0,0,1,0
931,"INQUILTUPA CHOQUIHUAYTA, Yosmar",13,0,0,1,0,1,0,1,0,0,1,0,1
932,"CALLAÑAUPA JUAREZ, Ramiro",12,0,1,0,0,1,0,1,1,0,1,0,1
933,"CRUZ ZULUAGA, Anani",11,0,0,0,1,0,1,0,0,1,0,1,0
934,Jonathan Smith Bejar Quispe,12,0,1,0,0,0,1,0,0,0,0,1,0
935,Markus Edú Ccoyori Baños,8,1,0,0,0,0,0,0,0,0,0,1,0
936,LUNA BACA Yasmina,11,1,0,0,0,1,0,1,0,0,1,0,1
937,"SICOS YLLA, Efrain",12,0,0,1,0,1,0,1,1,0,1,0,1
938,"Quispillo Villalobos, Franklin H.",9,1,0,0,0,1,0,1,1,0,1,1,1
939,"SILVA CASTILLO, Nancy",13,0,1,0,0,0,1,0,1,0,1,0,1
940,Joel Alexis Jimenez Alosilla,9,1,0,0,0,0,1,0,0,0,0,1,0
941,Alonzo Chaiña Mamani,7,0,0,0,1,1,1,1,1,0,1,0,1
942,Nayda Meza Quispe,6,1,0,0,0,0,0,0,0,0,0,1,0
943,Sherjhy Vidal Ferro Toledo,10,0,1,0,0,0,0,0,0,0,0,1,0
944,Yulissa Vanessa Huamani Paccori,11,1,0,0,0,0,0,0,0,0,0,1,0
945,Luis Antony Amao Paredes,9,1,0,0,0,0,0,0,0,1,0,1,0
946,Natan Ernesto Aquino Choquehuillca,6,1,0,0,0,0,0,0,0,1,0,1,0
947,"LETONA CUSIHUAMAN, Magaly",12,0,0,0,1,1,0,1,0,1,0,1,0
948,"ARANZABAL HUAMAN, Jhosep",11,0,0,0,1,0,0,1,0,1,0,1,0
949,Richar Zamata Gamarra,12,0,0,0,1,1,1,1,0,1,1,0,1
950,Medaly Pastor Villavicencio,10,0,1,0,0,0,0,0,0,0,0,1,0
951,"INQUILTUPA CHOQUIHUAYTA, Yosmar",13,0,0,1,0,1,0,1,0,0,1,0,1
952,"CALLAÑAUPA JUAREZ, Ramiro",12,0,1,0,0,1,0,1,1,0,1,0,1
953,"CRUZ ZULUAGA, Anani",11,0,0,0,1,0,1,0,0,1,0,1,0
954,Jonathan Smith Bejar Quispe,12,0,1,0,0,0,1,0,0,0,0,1,0
955,Markus Edú Ccoyori Baños,8,1,0,0,0,0,0,0,0,0,0,1,0
956,LUNA BACA Yasmina,11,1,0,0,0,1,0,1,0,0,1,0,1
957,"SICOS YLLA, Efrain",12,0,0,1,0,1,0,1,1,0,1,0,1
958,"Quispillo Villalobos, Franklin H.",9,1,0,0,0,1,0,1,1,0,1,1,1
959,"SILVA CASTILLO, Nancy",13,0,1,0,0,0,1,0,1,0,1,0,1
960,Joel Alexis Jimenez Alosilla,9,1,0,0,0,0,1,0,0,0,0,1,0